corrections/scope/scope20240122/T0006ALL.CSV

Model,DPO2014B
Firmware Version,1.52

Point Format,Y,,,,,,,
Horizontal Units,S,,,,,,,
Horizontal Scale,0.1,,,,,,,
Sample Interval,0.000192012,,,,,,,
Filter Frequency,1e+08,,,,,,,
Record Length,5207,,,,,,,
Gating,0.0% to 100.0%,,0.0% to 100.0%,,0.0% to 100.0%,,0.0% to 100.0%,
Probe Attenuation,100,,50,,10,,10,
Vertical Units,V,,V,,A,,A,
Vertical Offset,0,,0,,0,,0,
Vertical Scale,50,,50,,20,,10,
Label,,,,,,,,
TIME,CH1,CH1 Peak Detect,CH2,CH2 Peak Detect,CH3,CH3 Peak Detect,CH4,CH4 Peak Detect
-2.040e-01,-4,-6,-31,-31,-0.8,-2.4,-2.2,-2.6
-2.038e-01,-4,2,-23,-17,-0.8,-7.15256e-08,-2.2,-1.4
-2.036e-01,-4,-6,-19,-21,-0.8,-2.4,-1.8,-2.2
-2.034e-01,-1.3411e-07,2,-13,-7,-0.8,0.8,-1.4,-1
-2.032e-01,-2,-6,-9,-11,-7.15256e-08,-1.6,-1.4,-1.8
-2.030e-01,-2,2,-3,3,-7.15256e-08,0.8,-1.4,-0.6
-2.028e-01,-2,-6,1,-1,-7.15256e-08,-1.6,-1,-1.8
-2.027e-01,-2,2,5,13,-7.15256e-08,0.8,-1,-0.2
-2.025e-01,-2,-6,11,9,-7.15256e-08,-0.8,-0.6,-1.4
-2.023e-01,-4,2,13,21,-7.15256e-08,1.6,-0.6,-0.2
-2.021e-01,-2,-6,21,17,0.8,-0.8,-0.6,-1
-2.019e-01,-2,2,25,33,0.8,1.6,-0.2,0.2
-2.017e-01,-4,-6,31,29,0.8,-7.15256e-08,0.2,-0.6
-2.015e-01,-2,2,35,43,0.8,2.4,0.2,1
-2.013e-01,-2,-6,41,39,0.8,-7.15256e-08,0.6,-0.2
-2.011e-01,-2,2,45,51,1.6,2.4,0.6,1.4
-2.009e-01,-4,-6,51,47,0.8,0.8,1,0.2
-2.007e-01,-2,2,53,61,1.6,3.2,1,1.4
-2.005e-01,-2,-6,59,57,2.4,0.8,1.4,0.6
-2.004e-01,-4,2,63,69,2.4,3.2,1.4,2.2
-2.002e-01,-4,-6,67,65,3.2,1.6,1.4,1
-2.000e-01,-2,2,71,75,2.4,4,1.8,2.2
-1.998e-01,-1.3411e-07,-6,75,71,2.4,1.6,2.2,1.4
-1.996e-01,-2,2,75,81,3.2,4,2.2,2.6
-1.994e-01,-4,-6,79,77,3.2,1.6,2.2,1.8
-1.992e-01,-4,2,81,85,3.2,4,2.2,3
-1.990e-01,-4,-6,83,81,3.2,2.4,2.6,2.2
-1.988e-01,-2,2,85,89,4,4,2.6,3.4
-1.986e-01,-2,-6,85,85,3.2,2.4,3,2.2
-1.984e-01,-1.3411e-07,2,89,91,3.2,4.8,3,3.4
-1.982e-01,-2,-6,89,87,3.2,2.4,3,2.6
-1.980e-01,-2,2,89,91,4,4.8,3,3.8
-1.979e-01,-2,-6,89,85,4,2.4,3.4,2.6
-1.977e-01,-2,2,89,91,4,4.8,3,3.8
-1.975e-01,-2,-6,87,81,4,2.4,3.4,2.6
-1.973e-01,-2,2,85,89,3.2,4.8,3.4,3.8
-1.971e-01,-2,-6,83,77,4,2.4,3.4,3
-1.969e-01,-2,2,83,87,4,4.8,3.4,3.8
-1.967e-01,-2,-6,81,73,4,2.4,3.4,2.6
-1.965e-01,-2,2,77,83,4,4.8,3.4,3.8
-1.963e-01,-2,-6,75,69,4,2.4,3.4,2.6
-1.961e-01,-2,2,73,77,4,4.8,3.4,3.8
-1.959e-01,-4,-6,71,63,4,2.4,3.4,2.6
-1.957e-01,-2,2,69,73,4,4.8,3.4,3.8
-1.956e-01,-2,-6,65,55,4,2.4,3.4,2.6
-1.954e-01,-2,2,61,67,4,4.8,3,3.8
-1.952e-01,-4,-6,57,47,4,2.4,3.4,2.6
-1.950e-01,-2,2,53,59,4,4.8,3,3.4
-1.948e-01,-2,-6,49,37,3.2,1.6,3,2.2
-1.946e-01,-2,2,43,51,4,4,2.6,3.4
-1.944e-01,-2,-6,39,25,3.2,1.6,2.6,1.8
-1.942e-01,-2,2,33,39,2.4,4,2.6,3
-1.940e-01,-4,-6,27,15,3.2,1.6,2.2,1.4
-1.938e-01,-2,2,21,29,2.4,4,2.2,2.6
-1.936e-01,-2,-6,17,3,2.4,0.8,1.8,1.4
-1.934e-01,-4,2,11,17,2.4,3.2,1.8,2.6
-1.932e-01,-2,-6,5,-7,2.4,0.8,1.8,1
-1.931e-01,-2,2,-1,7,1.6,3.2,1.8,2.2
-1.929e-01,-2,-6,-3,-15,1.6,-7.15256e-08,1.4,0.6
-1.927e-01,-2,2,-9,-3,1.6,2.4,1,1.8
-1.925e-01,-4,-6,-13,-25,1.6,-7.15256e-08,1,0.2
-1.923e-01,-2,2,-19,-11,1.6,2.4,1,1.4
-1.921e-01,-2,-6,-23,-35,0.8,-0.8,1,-0.2
-1.919e-01,-2,2,-27,-21,0.8,1.6,0.6,1
-1.917e-01,-2,-6,-33,-45,0.8,-0.8,0.2,-0.6
-1.915e-01,-2,2,-39,-31,0.8,1.6,0.2,0.6
-1.913e-01,-2,-6,-43,-55,-7.15256e-08,-1.6,-0.2,-1
-1.911e-01,-4,2,-49,-41,-7.15256e-08,0.8,-0.2,0.2
-1.909e-01,-4,-6,-53,-65,-7.15256e-08,-1.6,-0.6,-1.4
-1.908e-01,-1.3411e-07,2,-57,-51,-7.15256e-08,0.8,-0.6,-0.2
-1.906e-01,-4,-6,-63,-73,-7.15256e-08,-2.4,-1,-1.8
-1.904e-01,-2,2,-67,-61,-0.8,0.8,-1.4,-0.6
-1.902e-01,-2,-6,-71,-79,-0.8,-2.4,-1.4,-2.2
-1.900e-01,-2,2,-73,-69,-0.8,-7.15256e-08,-1.4,-1
-1.898e-01,-2,-6,-77,-85,-1.6,-2.4,-1.8,-2.6
-1.896e-01,-2,2,-79,-75,-1.6,-7.15256e-08,-1.8,-1.4
-1.894e-01,-2,-6,-81,-89,-1.6,-2.4,-2.2,-3
-1.892e-01,-1.3411e-07,2,-85,-79,-1.6,-0.8,-2.2,-1.4
-1.890e-01,-2,-6,-87,-93,-1.6,-3.2,-2.2,-3
-1.888e-01,-4,2,-89,-85,-1.6,-0.8,-2.2,-1.8
-1.886e-01,-2,-6,-91,-95,-1.6,-3.2,-2.6,-3.4
-1.884e-01,-4,2,-91,-87,-1.6,-0.8,-3,-2.2
-1.883e-01,-4,-6,-93,-95,-2.4,-3.2,-3,-3.4
-1.881e-01,-2,2,-93,-89,-2.4,-0.8,-3,-2.2
-1.879e-01,-2,-6,-93,-95,-2.4,-3.2,-3,-3.8
-1.877e-01,-2,2,-91,-89,-2.4,-1.6,-3,-2.6
-1.875e-01,-2,-6,-91,-93,-2.4,-3.2,-3,-3.8
-1.873e-01,-2,2,-89,-85,-2.4,-1.6,-3.4,-2.6
-1.871e-01,-4,-6,-89,-91,-2.4,-3.2,-3,-3.8
-1.869e-01,-2,2,-85,-81,-2.4,-1.6,-3.4,-2.6
-1.867e-01,-2,-6,-83,-85,-2.4,-3.2,-3.4,-3.8
-1.865e-01,-1.3411e-07,2,-81,-77,-2.4,-1.6,-3,-2.6
-1.863e-01,-2,-6,-79,-81,-2.4,-3.2,-3.4,-3.8
-1.861e-01,-4,2,-77,-73,-2.4,-0.8,-3,-2.6
-1.860e-01,-2,-6,-75,-77,-2.4,-3.2,-3,-3.8
-1.858e-01,-2,2,-71,-67,-2.4,-0.8,-3,-2.6
-1.856e-01,-2,-6,-69,-71,-1.6,-3.2,-3,-3.8
-1.854e-01,-2,2,-65,-59,-2.4,-0.8,-3,-2.6
-1.852e-01,-2,-6,-61,-63,-1.6,-3.2,-3,-3.4
-1.850e-01,-4,2,-57,-51,-1.6,-0.8,-2.6,-2.2
-1.848e-01,-2,-6,-53,-55,-1.6,-2.4,-3,-3.4
-1.846e-01,-2,2,-47,-39,-1.6,-0.8,-2.6,-2.2
-1.844e-01,-4,-6,-41,-43,-1.6,-2.4,-2.6,-3
-1.842e-01,-2,2,-37,-29,-0.8,-7.15256e-08,-2.2,-1.8
-1.840e-01,-2,-6,-29,-31,-1.6,-2.4,-2.2,-2.6
-1.838e-01,-4,2,-25,-17,-0.8,-7.15256e-08,-1.8,-1.4
-1.836e-01,-4,-6,-19,-21,-0.8,-2.4,-2.2,-2.2
-1.835e-01,-4,2,-15,-7,-0.8,0.8,-1.8,-1
-1.833e-01,-2,-6,-9,-11,-7.15256e-08,-1.6,-1.4,-2.2
-1.831e-01,-2,2,-3,3,-7.15256e-08,0.8,-1.4,-0.6
-1.829e-01,-2,-6,1,-1,-0.8,-1.6,-1.4,-1.8
-1.827e-01,-2,2,5,11,-7.15256e-08,0.8,-1,-0.2
-1.825e-01,-2,-6,9,7,-7.15256e-08,-0.8,-1,-1.4
-1.823e-01,-4,2,15,21,0.8,1.6,-0.2,-0.2
-1.821e-01,-2,-6,21,17,0.8,-0.8,-0.6,-1
-1.819e-01,-4,2,25,33,0.8,1.6,-0.2,0.2
-1.817e-01,-4,-8,31,27,0.8,-7.15256e-08,-0.2,-0.6
-1.815e-01,-2,2,35,41,0.8,2.4,0.2,0.6
-1.813e-01,-2,-8,41,37,1.6,-7.15256e-08,0.6,-0.2
-1.812e-01,-2,2,45,51,1.6,2.4,0.6,1.4
-1.810e-01,-2,-6,49,47,1.6,0.8,0.6,0.2
-1.808e-01,-6,2,53,61,1.6,3.2,1,1.4
-1.806e-01,-2,-6,59,57,2.4,0.8,1.4,0.6
-1.804e-01,-2,2,63,69,2.4,3.2,1.4,2.2
-1.802e-01,-2,-6,67,65,2.4,0.8,1.4,1
-1.800e-01,-2,2,69,75,2.4,4,1.8,2.2
-1.798e-01,-4,-6,73,71,2.4,1.6,1.8,1.4
-1.796e-01,-4,2,77,81,3.2,4,2.2,2.6
-1.794e-01,-4,-6,77,75,3.2,1.6,2.2,1.8
-1.792e-01,-2,2,81,85,3.2,4,2.6,3
-1.790e-01,-4,-6,85,81,3.2,2.4,2.2,2.2
-1.788e-01,-4,2,85,89,3.2,4.8,2.6,3.4
-1.787e-01,-4,-6,87,85,4,2.4,3,2.2
-1.785e-01,-2,2,87,91,4,4.8,2.6,3.4
-1.783e-01,-4,-6,89,87,3.2,2.4,3,2.6
-1.781e-01,-4,2,89,91,4,4.8,3,3.8
-1.779e-01,-2,-6,89,85,4,2.4,3.4,2.6
-1.777e-01,-2,2,87,91,4,4.8,3,3.8
-1.775e-01,-2,-6,87,81,4,2.4,3.4,3
-1.773e-01,-4,2,85,89,4,4.8,3.4,3.8
-1.771e-01,-2,-6,83,77,3.2,2.4,3,3
-1.769e-01,-2,2,83,87,4,4.8,3.4,3.8
-1.767e-01,-2,-6,79,73,4,2.4,3.4,3
-1.765e-01,-2,2,77,83,4,4.8,3.4,3.8
-1.764e-01,-2,-6,75,69,4,2.4,3.4,3
-1.762e-01,-2,2,73,77,4,4.8,3.4,3.8
-1.760e-01,-1.3411e-07,-6,71,63,4,2.4,3.4,2.6
-1.758e-01,-4,2,67,73,4,4.8,3.4,3.8
-1.756e-01,-2,-6,65,55,4,2.4,3,2.6
-1.754e-01,-2,2,61,67,3.2,4.8,3.4,3.8
-1.752e-01,-2,-6,59,47,4,2.4,3,2.6
-1.750e-01,-2,2,55,61,3.2,4.8,3,3.8
-1.748e-01,-2,-8,49,37,3.2,1.6,3,2.2
-1.746e-01,-4,2,45,51,3.2,4,3,3.4
-1.744e-01,-2,-6,37,25,3.2,1.6,2.6,1.8
-1.742e-01,-4,2,33,41,3.2,4,2.6,3
-1.740e-01,-2,-6,27,15,2.4,1.6,2.2,1.4
-1.739e-01,-2,2,21,29,2.4,4,2.2,2.6
-1.737e-01,-2,-6,17,5,2.4,0.8,2.2,1.4
-1.735e-01,-2,2,11,19,2.4,3.2,1.8,2.6
-1.733e-01,-4,-6,7,-5,1.6,0.8,1.8,1
-1.731e-01,-4,2,1,9,1.6,3.2,1.8,2.2
-1.729e-01,-2,-6,-5,-15,1.6,-7.15256e-08,1.4,0.6
-1.727e-01,-2,2,-9,-1,1.6,2.4,1,1.8
-1.725e-01,-4,-6,-13,-25,1.6,-7.15256e-08,1,0.2
-1.723e-01,-2,2,-17,-11,0.8,2.4,1,1.4
-1.721e-01,-2,-6,-23,-35,0.8,-0.8,0.6,-0.2
-1.719e-01,-2,2,-27,-19,0.8,1.6,0.2,1
-1.717e-01,-4,-6,-33,-45,0.8,-0.8,0.2,-0.6
-1.715e-01,-4,2,-39,-31,0.8,1.6,0.2,0.6
-1.714e-01,-4,-6,-43,-55,-7.15256e-08,-1.6,-0.2,-1
-1.712e-01,-4,2,-49,-41,-7.15256e-08,0.8,-0.2,0.2
-1.710e-01,-4,-6,-53,-63,-7.15256e-08,-1.6,-0.6,-1.4
-1.708e-01,-2,2,-57,-51,-7.15256e-08,0.8,-0.6,-0.2
-1.706e-01,-2,-6,-61,-73,-0.8,-2.4,-1,-1.8
-1.704e-01,-4,2,-67,-59,-0.8,0.8,-1,-0.6
-1.702e-01,-2,-6,-71,-79,-0.8,-2.4,-1.4,-2.2
-1.700e-01,-4,2,-75,-69,-0.8,-7.15256e-08,-1.4,-1
-1.698e-01,-2,-6,-77,-85,-0.8,-2.4,-1.8,-2.6
-1.696e-01,-2,2,-79,-75,-0.8,-7.15256e-08,-1.8,-1.4
-1.694e-01,-2,-6,-81,-89,-1.6,-2.4,-1.8,-3
-1.692e-01,-2,2,-85,-79,-1.6,-0.8,-2.2,-1.4
-1.691e-01,-2,-6,-85,-93,-1.6,-3.2,-2.2,-3
-1.689e-01,-4,2,-87,-83,-1.6,-0.8,-2.2,-1.8
-1.687e-01,-1.3411e-07,-6,-89,-95,-1.6,-3.2,-2.6,-3.4
-1.685e-01,-2,2,-93,-87,-1.6,-0.8,-3,-2.2
-1.683e-01,-2,-6,-93,-95,-1.6,-3.2,-3,-3.4
-1.681e-01,-4,2,-93,-89,-1.6,-0.8,-3,-2.6
-1.679e-01,-2,-6,-93,-95,-2.4,-3.2,-3,-3.8
-1.677e-01,-2,2,-91,-89,-2.4,-0.8,-3,-2.6
-1.675e-01,-2,-6,-89,-93,-1.6,-3.2,-3,-3.8
-1.673e-01,-2,2,-89,-85,-2.4,-0.8,-3,-2.6
-1.671e-01,-4,-6,-89,-89,-1.6,-3.2,-3.4,-3.8
-1.669e-01,-4,2,-85,-81,-2.4,-1.6,-3,-2.6
-1.667e-01,-2,-8,-85,-87,-2.4,-4,-3.4,-3.8
-1.666e-01,-2,2,-83,-77,-2.4,-1.6,-3.4,-2.6
-1.664e-01,-2,-6,-79,-81,-2.4,-4,-3.4,-3.8
-1.662e-01,-4,2,-77,-73,-1.6,-0.8,-3,-2.6
-1.660e-01,-4,-6,-73,-77,-1.6,-3.2,-3,-3.8
-1.658e-01,-2,2,-71,-67,-2.4,-0.8,-3,-2.6
-1.656e-01,-4,-6,-69,-71,-2.4,-3.2,-3,-3.8
-1.654e-01,-2,2,-65,-59,-1.6,-0.8,-3,-2.6
-1.652e-01,-2,-6,-61,-63,-1.6,-3.2,-3,-3.4
-1.650e-01,-2,2,-59,-51,-1.6,-0.8,-3,-2.2
-1.648e-01,-2,-6,-53,-55,-1.6,-3.2,-2.6,-3.4
-1.646e-01,-2,2,-47,-39,-1.6,-0.8,-2.6,-2.2
-1.644e-01,-4,-6,-41,-45,-1.6,-2.4,-2.6,-3
-1.643e-01,-2,2,-37,-29,-1.6,-7.15256e-08,-2.2,-1.8
-1.641e-01,-4,-6,-31,-33,-0.8,-2.4,-2.6,-2.6
-1.639e-01,-4,2,-25,-19,-0.8,-7.15256e-08,-2.2,-1.4
-1.637e-01,-4,-6,-21,-23,-0.8,-2.4,-2.2,-2.6
-1.635e-01,-2,2,-15,-7,-0.8,0.8,-1.8,-1
-1.633e-01,-6,-6,-9,-11,-7.15256e-08,-1.6,-1.8,-2.2
-1.631e-01,-4,2,-5,3,-7.15256e-08,0.8,-1.4,-0.6
-1.629e-01,-2,-8,1,-1,-7.15256e-08,-1.6,-1.4,-1.8
-1.627e-01,-4,2,5,11,-7.15256e-08,0.8,-1,-0.6
-1.625e-01,-4,-6,9,7,-7.15256e-08,-0.8,-1,-1.4
-1.623e-01,-2,2,13,21,-7.15256e-08,1.6,-0.6,-0.2
-1.621e-01,-2,-6,19,17,0.8,-0.8,-0.6,-1
-1.619e-01,-4,2,23,31,0.8,1.6,-0.2,0.2
-1.618e-01,-4,-6,29,27,0.8,-7.15256e-08,-0.2,-0.6
-1.616e-01,-4,2,35,41,1.6,2.4,0.2,0.6
-1.614e-01,-2,-6,41,37,0.8,-7.15256e-08,0.6,-0.2
-1.612e-01,-2,2,43,51,0.8,2.4,0.6,1.4
-1.610e-01,-4,-6,49,47,1.6,0.8,1,0.2
-1.608e-01,-2,2,55,59,1.6,3.2,1,1.8
-1.606e-01,-2,-6,57,55,1.6,0.8,1.4,0.6
-1.604e-01,-4,2,61,69,2.4,3.2,1.4,1.8
-1.602e-01,-2,-6,67,65,2.4,1.6,1.8,1
-1.600e-01,-2,2,69,75,2.4,4,1.8,2.2
-1.598e-01,-4,-6,73,71,3.2,1.6,1.8,1.4
-1.596e-01,-4,2,77,81,3.2,4,2.2,2.6
-1.595e-01,-2,-6,79,77,3.2,1.6,2.2,1.8
-1.593e-01,-2,2,81,85,2.4,4,2.2,3
-1.591e-01,-2,-6,83,81,3.2,2.4,2.6,2.2
-1.589e-01,-2,2,85,89,4,4.8,2.6,3
-1.587e-01,-2,-6,87,85,4,2.4,3,2.2
-1.585e-01,-4,2,89,91,3.2,4.8,3,3.4
-1.583e-01,-2,-6,89,87,4,2.4,3,2.6
-1.581e-01,-2,2,89,91,3.2,4.8,3.4,3.8
-1.579e-01,-2,-6,89,85,4,2.4,3,2.6
-1.577e-01,-2,2,87,91,4,4.8,3,3.8
-1.575e-01,-2,-6,87,81,4,2.4,3.4,2.6
-1.573e-01,-2,2,85,89,4,4.8,3.4,3.8
-1.571e-01,-2,-6,85,77,4,2.4,3.4,2.6
-1.570e-01,-4,2,83,87,4,4.8,3,3.8
-1.568e-01,-2,-6,81,73,4,2.4,3.4,3
-1.566e-01,-4,2,79,83,3.2,4.8,3.4,3.8
-1.564e-01,-4,-6,75,69,4,2.4,3,2.6
-1.562e-01,-2,2,73,77,3.2,4.8,3.4,3.8
-1.560e-01,-4,-6,71,63,3.2,2.4,3.4,2.6
-1.558e-01,-2,2,69,73,3.2,4.8,3.4,3.8
-1.556e-01,-2,-6,67,57,4,2.4,3.4,2.6
-1.554e-01,-2,2,61,67,4,4.8,3.4,3.8
-1.552e-01,-2,-6,57,47,3.2,2.4,3,2.6
-1.550e-01,-2,2,53,61,3.2,4.8,3,3.8
-1.548e-01,-2,-6,51,37,3.2,1.6,3,2.2
-1.547e-01,-2,2,45,51,2.4,4,3,3.4
-1.545e-01,-1.3411e-07,-6,39,25,2.4,1.6,2.6,1.8
-1.543e-01,-2,2,33,41,2.4,4,2.6,3.4
-1.541e-01,-4,-6,29,15,2.4,1.6,2.2,1.8
-1.539e-01,-2,2,23,31,2.4,4,2.2,3
-1.537e-01,-2,-6,17,5,2.4,0.8,2.2,1.4
-1.535e-01,-2,2,11,19,2.4,3.2,1.8,2.6
-1.533e-01,-4,-6,7,-5,1.6,0.8,1.8,1
-1.531e-01,-2,2,1,9,1.6,3.2,1.8,2.2
-1.529e-01,-4,-6,-3,-13,1.6,-7.15256e-08,1.4,0.6
-1.527e-01,-2,2,-7,-1,1.6,2.4,1.4,1.8
-1.525e-01,-2,-6,-13,-23,0.8,-7.15256e-08,1.4,0.2
-1.523e-01,-4,2,-17,-11,1.6,2.4,1,1.8
-1.522e-01,-4,-6,-21,-33,0.8,-0.8,0.6,-0.2
-1.520e-01,-2,2,-27,-19,0.8,2.4,0.6,1
-1.518e-01,-2,-6,-33,-45,0.8,-0.8,0.2,-0.6
-1.516e-01,-2,2,-39,-29,-7.15256e-08,1.6,-0.2,0.6
-1.514e-01,-4,-6,-43,-55,-7.15256e-08,-1.6,-0.2,-1
-1.512e-01,-2,2,-49,-41,-7.15256e-08,1.6,-0.2,0.2
-1.510e-01,-2,-6,-51,-63,-0.8,-1.6,-0.6,-1.4
-1.508e-01,-2,2,-57,-51,-0.8,0.8,-0.6,-0.2
-1.506e-01,-4,-6,-61,-71,-0.8,-2.4,-1,-1.8
-1.504e-01,-2,2,-65,-59,-0.8,0.8,-1,-0.6
-1.502e-01,-2,-6,-69,-79,-0.8,-2.4,-1.4,-2.2
-1.500e-01,-2,2,-73,-67,-0.8,-7.15256e-08,-1.4,-1
-1.499e-01,-2,-6,-77,-83,-0.8,-2.4,-1.8,-2.6
-1.497e-01,-4,2,-79,-75,-1.6,-7.15256e-08,-1.8,-1.4
-1.495e-01,-4,-6,-83,-89,-0.8,-3.2,-2.2,-3
-1.493e-01,-2,2,-85,-79,-1.6,-7.15256e-08,-2.2,-1.4
-1.491e-01,-2,-6,-87,-91,-1.6,-3.2,-2.2,-3
-1.489e-01,-2,2,-89,-83,-1.6,-0.8,-2.6,-1.8
-1.487e-01,-2,-6,-89,-95,-1.6,-3.2,-2.6,-3.4
-1.485e-01,-4,2,-91,-87,-1.6,-0.8,-3,-2.2
-1.483e-01,-2,-6,-91,-95,-1.6,-3.2,-3,-3.4
-1.481e-01,-4,2,-93,-89,-2.4,-0.8,-2.6,-2.6
-1.479e-01,-4,-6,-93,-95,-2.4,-3.2,-3,-3.8
-1.477e-01,-2,2,-91,-87,-1.6,-1.6,-3,-2.6
-1.475e-01,-4,-6,-91,-93,-1.6,-3.2,-3,-3.8
-1.474e-01,-2,2,-89,-85,-2.4,-1.6,-3,-2.6
-1.472e-01,-2,-8,-87,-89,-2.4,-3.2,-3,-3.8
-1.470e-01,-4,2,-87,-81,-2.4,-0.8,-3,-2.6
-1.468e-01,-4,-8,-85,-87,-2.4,-3.2,-3,-3.8
-1.466e-01,-2,2,-81,-77,-2.4,-0.8,-3,-2.6
-1.464e-01,-4,-6,-79,-81,-2.4,-3.2,-3.4,-3.8
-1.462e-01,-2,2,-77,-73,-2.4,-1.6,-3.4,-2.6
-1.460e-01,-2,-6,-75,-77,-2.4,-3.2,-3.4,-3.8
-1.458e-01,-2,2,-71,-67,-1.6,-0.8,-3,-2.6
-1.456e-01,-2,-6,-67,-71,-2.4,-3.2,-3.4,-3.8
-1.454e-01,-2,2,-65,-61,-1.6,-0.8,-3,-2.6
-1.452e-01,-4,-6,-63,-65,-1.6,-3.2,-3,-3.4
-1.451e-01,-2,2,-59,-51,-2.4,-0.8,-3,-2.2
-1.449e-01,-2,-6,-55,-55,-1.6,-2.4,-3,-3.4
-1.447e-01,-4,2,-49,-41,-1.6,-7.15256e-08,-2.6,-2.2
-1.445e-01,-2,-6,-43,-45,-1.6,-2.4,-2.6,-3
-1.443e-01,-2,2,-37,-29,-1.6,-7.15256e-08,-2.2,-1.8
-1.441e-01,-1.3411e-07,-6,-31,-33,-0.8,-2.4,-2.2,-2.6
-1.439e-01,-4,2,-25,-19,-0.8,-7.15256e-08,-1.8,-1.4
-1.437e-01,-4,-6,-21,-23,-0.8,-2.4,-1.8,-2.6
-1.435e-01,-4,2,-15,-9,-0.8,-7.15256e-08,-1.8,-1
-1.433e-01,-2,-6,-11,-13,-7.15256e-08,-1.6,-1.8,-2.2
-1.431e-01,-6,2,-5,1,-7.15256e-08,0.8,-1.4,-0.6
-1.429e-01,-2,-6,-1,-1,-7.15256e-08,-1.6,-1,-1.8
-1.427e-01,-2,2,5,11,-7.15256e-08,0.8,-1,-0.2
-1.426e-01,-2,-6,9,7,0.8,-0.8,-0.6,-1.4
-1.424e-01,-6,2,13,21,-7.15256e-08,1.6,-0.6,-0.2
-1.422e-01,-2,-6,17,15,0.8,-0.8,-0.2,-1
-1.420e-01,-2,2,23,31,0.8,1.6,-0.2,0.2
-1.418e-01,-4,-6,29,27,0.8,-7.15256e-08,-0.2,-0.6
-1.416e-01,-2,2,33,41,0.8,2.4,0.2,0.6
-1.414e-01,-2,-6,39,37,1.6,-7.15256e-08,0.2,-0.2
-1.412e-01,-2,2,43,51,1.6,2.4,0.6,1.4
-1.410e-01,-2,-6,49,47,1.6,0.8,1,0.2
-1.408e-01,-2,2,55,59,1.6,3.2,1,1.4
-1.406e-01,-2,-6,57,55,2.4,0.8,1,0.6
-1.404e-01,-2,2,63,67,2.4,3.2,1.8,1.8
-1.403e-01,-2,-6,65,63,2.4,0.8,1.4,1
-1.401e-01,-2,2,69,75,2.4,4,1.8,2.2
-1.399e-01,-2,-8,73,69,2.4,1.6,1.8,1.4
-1.397e-01,-4,2,75,79,3.2,4,1.8,2.6
-1.395e-01,-4,-6,77,75,3.2,1.6,2.2,1.8
-1.393e-01,-2,2,81,85,3.2,4,2.2,3
-1.391e-01,-2,-6,81,81,3.2,2.4,2.2,2.2
-1.389e-01,-2,2,85,89,3.2,4.8,2.6,3.4
-1.387e-01,-4,-6,85,83,3.2,2.4,3,2.2
-1.385e-01,-2,2,87,91,4,4.8,3,3.4
-1.383e-01,-2,-6,89,87,3.2,2.4,3,2.6
-1.381e-01,-2,2,89,91,3.2,4.8,3,3.8
-1.379e-01,-2,-6,89,85,3.2,2.4,3,2.6
-1.378e-01,-2,2,89,91,4,4.8,3.4,3.8
-1.376e-01,-2,-6,87,83,4,2.4,3,2.6
-1.374e-01,-1.3411e-07,2,87,89,4,4.8,3.4,3.8
-1.372e-01,-2,-6,85,79,4,2.4,3.4,3
-1.370e-01,-2,2,83,87,4,4.8,3.4,3.8
-1.368e-01,-1.3411e-07,-6,81,73,4,2.4,3.4,3
-1.366e-01,-4,2,79,83,4,4.8,3.4,3.8
-1.364e-01,-4,-6,77,69,4,2.4,3.4,3
-1.362e-01,-2,2,73,79,4,4.8,3.4,3.8
-1.360e-01,-2,-6,71,65,4,2.4,3.4,3
-1.358e-01,-1.3411e-07,2,69,73,4,4.8,3.4,3.8
-1.356e-01,-2,-6,67,57,4,2.4,3.4,2.6
-1.355e-01,-4,2,63,69,4,4.8,3,3.8
-1.353e-01,-4,-6,59,47,3.2,2.4,3.4,2.6
-1.351e-01,-4,2,55,61,3.2,4.8,3,3.4
-1.349e-01,-2,-6,49,37,3.2,1.6,3,2.2
-1.347e-01,-2,2,45,53,3.2,4,3,3.4
-1.345e-01,-2,-6,41,27,3.2,1.6,2.6,1.8
-1.343e-01,-4,2,33,41,3.2,4,2.6,3
-1.341e-01,-4,-6,29,15,2.4,1.6,2.2,1.4
-1.339e-01,-2,2,21,31,2.4,4,2.2,3
-1.337e-01,-2,-6,17,5,2.4,0.8,1.8,1.4
-1.335e-01,-2,2,13,19,2.4,3.2,1.8,2.6
-1.333e-01,-2,-6,7,-5,2.4,0.8,1.8,1
-1.331e-01,-1.3411e-07,2,3,9,2.4,3.2,1.8,2.2
-1.330e-01,-2,-6,-3,-13,1.6,0.8,1.4,0.6
-1.328e-01,-4,2,-7,-1,1.6,2.4,1.4,1.8
-1.326e-01,-2,-6,-11,-23,1.6,-7.15256e-08,1,0.2
-1.324e-01,-2,2,-17,-9,0.8,2.4,0.6,1.4
-1.322e-01,-2,-6,-21,-33,0.8,-7.15256e-08,0.6,-0.2
-1.320e-01,-4,2,-27,-19,0.8,2.4,0.2,1
-1.318e-01,-2,-6,-31,-45,0.8,-0.8,0.2,-0.6
-1.316e-01,-1.3411e-07,2,-37,-29,-7.15256e-08,1.6,0.2,0.6
-1.314e-01,-2,-6,-43,-53,-7.15256e-08,-0.8,-0.2,-1
-1.312e-01,-4,2,-47,-39,-7.15256e-08,0.8,-0.2,0.2
-1.310e-01,-2,-6,-53,-63,-7.15256e-08,-1.6,-0.6,-1.4
-1.308e-01,-2,2,-57,-49,-0.8,0.8,-0.6,-0.2
-1.307e-01,-2,-6,-61,-71,-7.15256e-08,-1.6,-1,-1.8
-1.305e-01,-4,2,-65,-59,-0.8,0.8,-1,-0.6
-1.303e-01,-2,-6,-69,-77,-0.8,-2.4,-1.4,-2.2
-1.301e-01,-4,2,-73,-67,-0.8,-7.15256e-08,-1.4,-1
-1.299e-01,-2,-6,-75,-83,-1.6,-2.4,-1.4,-2.6
-1.297e-01,-4,2,-79,-73,-0.8,-7.15256e-08,-2.2,-1
-1.295e-01,-4,-6,-83,-87,-1.6,-3.2,-1.8,-3
-1.293e-01,-2,2,-83,-79,-1.6,-0.8,-2.2,-1.4
-1.291e-01,-4,-6,-87,-91,-1.6,-3.2,-2.2,-3
-1.289e-01,-4,2,-89,-83,-1.6,-0.8,-2.2,-1.8
-1.287e-01,-2,-6,-89,-95,-1.6,-3.2,-2.6,-3.4
-1.285e-01,-2,2,-91,-87,-1.6,-0.8,-3,-2.2
-1.283e-01,-2,-6,-91,-95,-1.6,-3.2,-3,-3.4
-1.282e-01,-2,2,-91,-89,-1.6,-0.8,-3,-2.6
-1.280e-01,-4,-6,-93,-95,-1.6,-3.2,-3,-3.8
-1.278e-01,-2,2,-91,-89,-2.4,-0.8,-3,-2.6
-1.276e-01,-2,-6,-91,-93,-2.4,-3.2,-3,-3.8
-1.274e-01,-4,2,-89,-85,-1.6,-0.8,-3,-2.6
-1.272e-01,-2,-6,-87,-91,-2.4,-3.2,-3,-3.8
-1.270e-01,-4,2,-87,-83,-2.4,-0.8,-3.4,-2.6
-1.268e-01,-4,-6,-85,-87,-2.4,-3.2,-3.4,-3.8
-1.266e-01,-2,2,-81,-77,-2.4,-1.6,-3,-2.6
-1.264e-01,-4,-6,-81,-83,-2.4,-3.2,-3,-3.8
-1.262e-01,-2,2,-77,-73,-2.4,-0.8,-3,-2.6
-1.260e-01,-2,-6,-75,-77,-1.6,-3.2,-3,-3.8
-1.259e-01,-2,2,-73,-69,-2.4,-0.8,-3.4,-2.6
-1.257e-01,-2,-6,-71,-73,-2.4,-3.2,-3,-3.8
-1.255e-01,-2,2,-67,-61,-1.6,-0.8,-3,-2.6
-1.253e-01,-2,-6,-63,-65,-2.4,-3.2,-3.4,-3.4
-1.251e-01,-2,2,-59,-51,-1.6,-0.8,-3,-2.2
-1.249e-01,-2,-6,-53,-57,-1.6,-3.2,-3,-3.4
-1.247e-01,-4,2,-51,-41,-1.6,-7.15256e-08,-2.6,-2.2
-1.245e-01,-4,-6,-43,-45,-0.8,-2.4,-2.6,-3
-1.243e-01,-2,2,-37,-29,-1.6,-7.15256e-08,-2.2,-1.8
-1.241e-01,-4,-6,-31,-33,-1.6,-2.4,-2.2,-2.6
-1.239e-01,-2,2,-27,-19,-0.8,-7.15256e-08,-1.8,-1.4
-1.237e-01,-2,-6,-23,-23,-0.8,-2.4,-1.8,-2.6
-1.235e-01,-4,2,-17,-9,-0.8,-7.15256e-08,-1.8,-1
-1.234e-01,-2,-6,-11,-13,-0.8,-1.6,-1.8,-2.2
-1.232e-01,-2,2,-5,1,-7.15256e-08,0.8,-1.4,-0.6
-1.230e-01,-2,-6,-1,-3,-0.8,-1.6,-1.4,-1.8
-1.228e-01,-2,2,5,9,-7.15256e-08,0.8,-1,-0.6
-1.226e-01,-2,-6,7,5,-7.15256e-08,-0.8,-1,-1.4
-1.224e-01,-2,2,13,19,-7.15256e-08,1.6,-0.6,-0.2
-1.222e-01,-4,-6,17,15,0.8,-0.8,-0.2,-1
-1.220e-01,-4,2,23,29,0.8,1.6,-0.2,0.2
-1.218e-01,-4,-6,27,25,0.8,-7.15256e-08,-0.2,-0.6
-1.216e-01,-2,2,33,39,0.8,2.4,0.2,0.6
-1.214e-01,-4,-6,39,35,1.6,-7.15256e-08,0.2,-0.2
-1.212e-01,-2,2,43,49,1.6,2.4,0.6,1
-1.211e-01,-2,-6,49,45,1.6,0.8,0.6,0.2
-1.209e-01,-2,2,51,59,1.6,3.2,1,1.4
-1.207e-01,-4,-6,57,55,1.6,0.8,1,0.6
-1.205e-01,-4,2,61,67,2.4,3.2,1.4,2.2
-1.203e-01,-2,-6,65,63,2.4,1.6,1.4,1
-1.201e-01,-4,2,69,73,2.4,4,1.8,2.2
-1.199e-01,-2,-6,71,69,2.4,1.6,1.8,1.4
-1.197e-01,-2,2,73,79,3.2,4,2.2,2.6
-1.195e-01,-4,-6,77,75,3.2,1.6,2.2,1.8
-1.193e-01,-4,2,81,85,2.4,4,2.6,3
-1.191e-01,-4,-6,83,79,3.2,2.4,2.6,2.2
-1.189e-01,-2,2,85,87,3.2,4,2.6,3.4
-1.187e-01,-1.3411e-07,-6,85,83,4,2.4,2.6,2.2
-1.186e-01,-2,2,87,91,3.2,4.8,2.6,3.4
-1.184e-01,-2,-6,89,87,4,2.4,3,2.6
-1.182e-01,-1.3411e-07,2,89,91,4,4.8,3,3.8
-1.180e-01,-4,-6,89,85,4,2.4,3,2.6
-1.178e-01,-2,2,89,91,4,4.8,3.4,3.8
-1.176e-01,-4,-6,89,83,4,2.4,3.4,2.6
-1.174e-01,-2,2,85,89,4,4.8,3.4,3.8
-1.172e-01,-2,-6,85,79,4,2.4,3.4,2.6
-1.170e-01,-2,2,83,87,4,4.8,3.4,3.8
-1.168e-01,-2,-6,81,73,4,2.4,3.4,3
-1.166e-01,-2,2,79,83,4,4.8,3.4,3.8
-1.164e-01,-2,-6,77,69,4,2.4,3.4,3
-1.163e-01,-2,2,73,79,4,4.8,3,3.8
-1.161e-01,-2,-6,73,65,4,2.4,3,3
-1.159e-01,-2,2,69,73,4,4.8,3.4,3.8
-1.157e-01,-2,-6,67,57,3.2,2.4,3.4,2.6
-1.155e-01,-2,2,63,69,3.2,4.8,3,3.8
-1.153e-01,-2,-6,59,49,4,2.4,3,2.6
-1.151e-01,-2,2,55,61,3.2,4,3,3.8
-1.149e-01,-2,-6,49,39,3.2,1.6,3,2.2
-1.147e-01,-2,2,45,53,3.2,4,3,3.4
-1.145e-01,-2,-6,39,27,3.2,1.6,2.6,1.8
-1.143e-01,-4,2,35,43,3.2,4,2.6,3.4
-1.141e-01,-2,-6,29,17,2.4,1.6,2.2,1.8
-1.139e-01,-4,2,23,31,2.4,4,2.2,3
-1.138e-01,-2,-6,17,7,2.4,0.8,2.2,1.4
