corrections/scope/scope20240122/T0013ALL.CSV

Model,DPO2014B
Firmware Version,1.52

Point Format,Y,,,,,,,
Horizontal Units,S,,,,,,,
Horizontal Scale,0.04,,,,,,,
Sample Interval,7.68049e-05,,,,,,,
Filter Frequency,1e+08,,,,,,,
Record Length,5207,,,,,,,
Gating,0.0% to 100.0%,,0.0% to 100.0%,,0.0% to 100.0%,,0.0% to 100.0%,
Probe Attenuation,100,,50,,10,,10,
Vertical Units,V,,V,,A,,A,
Vertical Offset,0,,0,,0,,0,
Vertical Scale,50,,50,,20,,10,
Label,,,,,,,,
TIME,CH1,CH1 Peak Detect,CH2,CH2 Peak Detect,CH3,CH3 Peak Detect,CH4,CH4 Peak Detect
-8.6000e-02,-2,-6,-63,-65,-1.6,-3.2,-3,-3.4
-8.5923e-02,-2,2,-61,-57,-2.4,-0.8,-3,-2.6
-8.5846e-02,-4,-6,-59,-63,-2.4,-3.2,-3,-3.4
-8.5770e-02,-2,2,-59,-55,-2.4,-0.8,-3,-2.2
-8.5693e-02,-4,-6,-57,-59,-1.6,-3.2,-3,-3.4
-8.5616e-02,-2,-1.3411e-07,-55,-51,-1.6,-0.8,-3,-2.2
-8.5539e-02,-2,-6,-55,-55,-2.4,-3.2,-3,-3.4
-8.5462e-02,-2,-1.3411e-07,-53,-47,-1.6,-0.8,-2.6,-2.2
-8.5386e-02,-2,-8,-49,-51,-1.6,-3.2,-2.6,-3.4
-8.5309e-02,-2,2,-47,-43,-1.6,-0.8,-2.6,-2.2
-8.5232e-02,-4,-6,-45,-47,-1.6,-2.4,-2.6,-3
-8.5155e-02,-4,2,-41,-39,-1.6,-0.8,-2.6,-2.2
-8.5078e-02,-2,-6,-39,-41,-1.6,-2.4,-2.6,-3
-8.5002e-02,-2,2,-39,-33,-0.8,-0.8,-2.6,-1.8
-8.4925e-02,-2,-6,-35,-37,-0.8,-2.4,-2.6,-2.6
-8.4848e-02,-4,2,-33,-29,-1.6,-7.15256e-08,-2.2,-1.8
-8.4771e-02,-4,-6,-31,-33,-1.6,-2.4,-2.2,-2.6
-8.4694e-02,-2,2,-29,-25,-0.8,-7.15256e-08,-2.2,-1.8
-8.4618e-02,-2,-6,-27,-29,-0.8,-2.4,-1.8,-2.6
-8.4541e-02,-4,2,-25,-19,-0.8,-7.15256e-08,-2.2,-1.4
-8.4464e-02,-4,-6,-21,-23,-0.8,-2.4,-2.2,-2.6
-8.4387e-02,-4,2,-21,-15,-0.8,-7.15256e-08,-1.8,-1.4
-8.4310e-02,-4,-6,-17,-19,-0.8,-1.6,-1.8,-2.2
-8.4233e-02,-2,2,-17,-11,-0.8,-7.15256e-08,-1.4,-1.4
-8.4157e-02,-2,-6,-13,-15,-0.8,-1.6,-1.4,-2.2
-8.4080e-02,-4,2,-11,-7,-0.8,-7.15256e-08,-1.4,-1
-8.4003e-02,-4,-6,-9,-11,-0.8,-1.6,-1.4,-1.8
-8.3926e-02,-2,2,-7,-3,-1.6,0.8,-1.4,-1
-8.3849e-02,-4,-6,-5,-7,-0.8,-1.6,-1.4,-1.8
-8.3773e-02,-2,-1.3411e-07,-3,1,-7.15256e-08,0.8,-1.4,-1
-8.3696e-02,-2,-6,-1,-3,-0.8,-1.6,-1.4,-1.8
-8.3619e-02,-4,2,1,5,-0.8,0.8,-1,-0.6
-8.3542e-02,-4,-6,3,1,-7.15256e-08,-1.6,-1.4,-1.8
-8.3465e-02,-2,2,5,9,-7.15256e-08,0.8,-1,-0.6
-8.3389e-02,-4,-6,5,5,-7.15256e-08,-0.8,-1,-1.4
-8.3312e-02,-4,2,7,11,-7.15256e-08,0.8,-1,-0.2
-8.3235e-02,-4,-6,9,7,-7.15256e-08,-0.8,-1,-1.4
-8.3158e-02,-4,2,11,15,-7.15256e-08,0.8,-1,-0.2
-8.3081e-02,-4,-6,13,11,-7.15256e-08,-0.8,-0.6,-1
-8.3005e-02,-2,2,15,19,-7.15256e-08,0.8,-0.6,-0.2
-8.2928e-02,-4,-6,17,15,-7.15256e-08,-0.8,-0.6,-1
-8.2851e-02,-2,2,19,23,0.8,1.6,-0.6,-0.2
-8.2774e-02,-4,-6,21,19,-7.15256e-08,-0.8,-0.2,-1
-8.2697e-02,-2,2,23,27,-7.15256e-08,1.6,-0.2,0.2
-8.2621e-02,-4,-6,25,23,-7.15256e-08,-0.8,-0.2,-1
-8.2544e-02,-4,2,27,31,0.8,1.6,-0.2,0.2
-8.2467e-02,-4,-6,29,27,0.8,-7.15256e-08,-0.2,-0.6
-8.2390e-02,-4,2,31,35,-7.15256e-08,1.6,-0.2,0.6
-8.2313e-02,-2,-6,33,31,0.8,-7.15256e-08,0.2,-0.6
-8.2237e-02,-2,2,35,39,0.8,1.6,0.2,0.6
-8.2160e-02,-2,-6,35,35,0.8,-7.15256e-08,0.2,-0.2
-8.2083e-02,-2,2,39,43,0.8,2.4,0.6,1
-8.2006e-02,-4,-8,41,39,0.8,-7.15256e-08,0.2,-0.2
-8.1929e-02,-4,2,43,47,1.6,2.4,0.6,1
-8.1853e-02,-2,-6,45,43,0.8,-7.15256e-08,0.6,0.2
-8.1776e-02,-2,2,47,51,1.6,2.4,0.6,1
-8.1699e-02,-4,-6,49,47,1.6,0.8,0.6,0.2
-8.1622e-02,-4,2,51,55,1.6,2.4,1,1.4
-8.1545e-02,-4,-6,51,51,1.6,0.8,1,0.6
-8.1469e-02,-2,2,53,57,1.6,2.4,1,1.4
-8.1392e-02,-4,-6,55,53,1.6,0.8,1,0.6
-8.1315e-02,-2,2,57,61,1.6,3.2,1,1.8
-8.1238e-02,-2,-6,61,57,2.4,0.8,1.4,0.6
-8.1161e-02,-2,2,61,65,1.6,3.2,1.4,1.8
-8.1084e-02,-4,-6,63,61,2.4,0.8,1.4,1
-8.1008e-02,-2,2,65,67,2.4,3.2,1.4,1.8
-8.0931e-02,-4,-6,67,63,1.6,0.8,1.4,1
-8.0854e-02,-1.3411e-07,2,67,71,2.4,3.2,1.4,2.2
-8.0777e-02,-4,-6,69,67,2.4,1.6,1.8,1.4
-8.0700e-02,-2,2,69,73,2.4,3.2,1.8,2.2
-8.0624e-02,-4,-6,71,69,2.4,1.6,1.8,1.4
-8.0547e-02,-4,2,71,75,2.4,4,1.8,2.2
-8.0470e-02,-2,-6,73,71,2.4,1.6,1.8,1.4
-8.0393e-02,-2,2,75,79,3.2,4,2.2,2.6
-8.0316e-02,-4,-6,77,73,3.2,1.6,2.2,1.4
-8.0240e-02,-2,2,77,79,3.2,4,2.2,2.6
-8.0163e-02,-4,-6,79,75,3.2,1.6,2.2,1.8
-8.0086e-02,-4,2,79,81,3.2,4,2.2,2.6
-8.0009e-02,-4,-6,79,77,3.2,1.6,2.2,1.8
-7.9932e-02,-2,2,81,83,3.2,4,2.2,3
-7.9856e-02,-4,-6,81,79,3.2,2.4,2.2,1.8
-7.9779e-02,-2,2,81,85,3.2,4,2.6,3
-7.9702e-02,-2,-6,83,81,3.2,2.4,2.6,2.2
-7.9625e-02,-1.3411e-07,2,83,87,3.2,4,2.6,3
-7.9548e-02,-1.3411e-07,-6,85,83,3.2,2.4,2.6,2.2
-7.9472e-02,-2,2,85,89,3.2,4,2.6,3.4
-7.9395e-02,-2,-6,85,83,3.2,2.4,2.6,2.2
-7.9318e-02,-4,2,87,89,3.2,4.8,3,3.4
-7.9241e-02,-2,-6,87,85,3.2,2.4,3,2.6
-7.9164e-02,-2,2,89,91,4,4.8,3,3.4
-7.9088e-02,-4,-6,87,85,3.2,2.4,3,2.6
-7.9011e-02,-2,2,89,91,4,4.8,2.6,3.4
-7.8934e-02,-2,-6,89,87,4,2.4,3,2.6
-7.8857e-02,-2,2,89,91,4,4.8,3,3.4
-7.8780e-02,-2,-6,89,87,3.2,2.4,3,2.6
-7.8704e-02,-2,2,89,91,4,4.8,3,3.8
-7.8627e-02,-2,-6,89,85,4,2.4,3,2.6
-7.8550e-02,-4,2,89,91,4,4.8,3,3.8
-7.8473e-02,-2,-6,89,85,4,2.4,3,2.6
-7.8396e-02,-4,2,89,91,4,4.8,3,3.8
-7.8320e-02,-4,-6,87,85,4,2.4,3,2.6
-7.8243e-02,-2,2,87,89,4,4.8,3,3.8
-7.8166e-02,-4,-6,87,83,4,2.4,3.4,2.6
-7.8089e-02,-2,2,85,89,4,4.8,3.4,3.8
-7.8012e-02,-2,-6,85,81,4,2.4,3.4,2.6
-7.7935e-02,-2,2,83,87,4,4.8,3.4,3.8
-7.7859e-02,-4,-6,85,81,4,3.2,3.4,3
-7.7782e-02,-2,2,85,87,4,4.8,3.4,3.8
-7.7705e-02,-4,-6,83,79,4,3.2,3.4,2.6
-7.7628e-02,-2,2,81,85,4,4.8,3.4,3.8
-7.7551e-02,-2,-6,81,77,4,2.4,3.4,3
-7.7475e-02,-2,2,81,83,4,4.8,3.4,3.8
-7.7398e-02,-2,-6,79,75,4,2.4,3.4,3
-7.7321e-02,-2,2,79,81,4,4.8,3.4,3.8
-7.7244e-02,-2,-6,77,73,4,2.4,3.4,3
-7.7167e-02,-4,2,77,79,4,4.8,3.4,3.8
-7.7091e-02,-4,-6,75,71,4,2.4,3,3
-7.7014e-02,-2,2,73,77,4,4.8,3.4,3.8
-7.6937e-02,-2,-6,73,69,4,2.4,3.4,3
-7.6860e-02,-2,2,73,75,4,4.8,3.4,3.8
-7.6783e-02,-2,-6,71,67,4,2.4,3.4,3
-7.6707e-02,-4,2,71,73,4,4.8,3,3.8
-7.6630e-02,-2,-6,69,65,4,2.4,3.4,2.6
-7.6553e-02,-2,2,67,71,3.2,4.8,3.4,3.8
-7.6476e-02,-2,-6,67,63,3.2,2.4,3.4,2.6
-7.6399e-02,-4,2,67,69,4,4.8,3.4,3.8
-7.6323e-02,-2,-6,65,61,4,2.4,3,2.6
-7.6246e-02,-1.3411e-07,2,65,67,4,4.8,3,3.8
-7.6169e-02,-2,-6,63,57,4,2.4,3,2.6
-7.6092e-02,-4,2,61,65,4,4.8,3,3.8
-7.6015e-02,-2,-6,61,55,4,2.4,3,2.6
-7.5939e-02,-2,2,59,61,4,4.8,3,3.8
-7.5862e-02,-2,-6,57,51,4,2.4,3,2.6
-7.5785e-02,-4,2,55,59,3.2,4.8,3,3.4
-7.5708e-02,-2,-6,55,47,4,2.4,3,2.6
-7.5631e-02,-2,2,51,55,3.2,4.8,3,3.4
-7.5555e-02,-4,-6,49,43,3.2,2.4,3,2.2
-7.5478e-02,-2,2,49,51,3.2,4,3,3.4
-7.5401e-02,-2,-6,45,39,3.2,2.4,3,2.2
-7.5324e-02,-2,2,45,47,3.2,4,3,3.4
-7.5247e-02,-2,-6,43,35,3.2,2.4,3,2.2
-7.5171e-02,-4,2,41,43,3.2,4,2.6,3.4
-7.5094e-02,-2,-6,37,31,3.2,1.6,2.6,2.2
-7.5017e-02,-4,2,35,39,3.2,4,2.6,3
-7.4940e-02,-2,-6,33,27,3.2,1.6,2.6,1.8
-7.4863e-02,-2,2,31,35,2.4,4,2.6,3
-7.4786e-02,-4,-6,27,21,2.4,1.6,2.2,1.8
-7.4710e-02,-4,2,25,31,3.2,4,2.6,3
-7.4633e-02,-2,-8,23,17,3.2,1.6,2.2,1.8
-7.4556e-02,-2,2,21,25,2.4,4,2.2,2.6
-7.4479e-02,-4,-6,19,13,2.4,1.6,2.2,1.4
-7.4402e-02,-4,2,17,21,2.4,4,1.8,2.6
-7.4326e-02,-2,-6,15,9,2.4,1.6,2.2,1.4
-7.4249e-02,-2,2,13,17,2.4,4,1.8,2.2
-7.4172e-02,-4,-6,11,5,2.4,0.8,1.8,1.4
-7.4095e-02,-2,2,9,13,1.6,3.2,1.8,2.2
-7.4018e-02,-2,-6,7,1,2.4,0.8,1.8,1
-7.3942e-02,-2,2,3,9,2.4,3.2,1.8,2.2
-7.3865e-02,-2,-6,3,-3,2.4,0.8,1.8,1
-7.3788e-02,-4,2,1,5,1.6,3.2,1.4,1.8
-7.3711e-02,-2,-6,-3,-7,2.4,0.8,1.4,1
-7.3634e-02,-2,2,-5,1,1.6,3.2,1.4,1.8
-7.3558e-02,-4,-6,-5,-11,1.6,0.8,1.4,0.6
-7.3481e-02,-4,2,-7,-3,1.6,2.4,1,1.8
-7.3404e-02,-4,-6,-9,-13,1.6,0.8,1.4,0.6
-7.3327e-02,-4,2,-11,-7,1.6,2.4,1.4,1.8
-7.3250e-02,-4,-6,-13,-17,1.6,-7.15256e-08,1,0.6
-7.3174e-02,-2,2,-13,-11,1.6,2.4,1,1.4
-7.3097e-02,-2,-6,-15,-21,1.6,-7.15256e-08,0.6,0.2
-7.3020e-02,-4,2,-17,-15,1.6,2.4,1,1.4
-7.2943e-02,-2,-6,-19,-25,0.8,-7.15256e-08,0.6,0.2
-7.2866e-02,-4,2,-23,-17,0.8,2.4,0.6,1.4
-7.2790e-02,-2,-6,-25,-29,1.6,-7.15256e-08,0.6,0.2
-7.2713e-02,-2,2,-27,-21,0.8,2.4,0.6,1
-7.2636e-02,-2,-6,-27,-33,0.8,-7.15256e-08,0.6,-0.2
-7.2559e-02,-2,2,-29,-25,0.8,1.6,0.2,1
-7.2482e-02,-1.3411e-07,-6,-31,-39,0.8,-7.15256e-08,0.2,-0.2
-7.2406e-02,-2,2,-35,-29,0.8,1.6,0.2,0.6
-7.2329e-02,-2,-6,-35,-43,-7.15256e-08,-0.8,0.2,-0.6
-7.2252e-02,-2,2,-39,-33,0.8,1.6,-0.2,0.6
-7.2175e-02,-2,-6,-41,-47,0.8,-0.8,-0.2,-0.6
-7.2098e-02,-4,2,-43,-39,0.8,1.6,-0.2,0.6
-7.2022e-02,-4,-6,-43,-51,-7.15256e-08,-0.8,-0.2,-1
-7.1945e-02,-2,2,-45,-41,0.8,1.6,-0.2,0.2
-7.1868e-02,-2,-6,-49,-55,-7.15256e-08,-0.8,-0.6,-1
-7.1791e-02,-2,2,-49,-47,-7.15256e-08,0.8,-0.6,0.2
-7.1714e-02,-2,-8,-53,-57,-7.15256e-08,-0.8,-0.6,-1
-7.1637e-02,-4,2,-55,-49,-7.15256e-08,0.8,-0.6,-0.2
-7.1561e-02,-4,-6,-57,-61,-7.15256e-08,-1.6,-0.6,-1.4
-7.1484e-02,-2,2,-57,-53,-7.15256e-08,0.8,-1,-0.2
-7.1407e-02,-2,-6,-59,-65,-7.15256e-08,-1.6,-0.6,-1.4
-7.1330e-02,-4,2,-61,-57,-0.8,0.8,-1,-0.2
-7.1253e-02,-1.3411e-07,-6,-63,-69,-0.8,-1.6,-1,-1.8
-7.1177e-02,-4,2,-65,-61,-0.8,0.8,-1,-0.6
-7.1100e-02,-4,-6,-67,-71,-0.8,-1.6,-1,-1.8
-7.1023e-02,-2,2,-67,-65,-0.8,-7.15256e-08,-1,-0.6
-7.0946e-02,-4,-6,-69,-73,-0.8,-1.6,-1.4,-2.2
-7.0869e-02,-2,2,-73,-67,-0.8,-7.15256e-08,-1.4,-1
-7.0793e-02,-2,-6,-73,-77,-0.8,-2.4,-1.4,-2.2
-7.0716e-02,-2,2,-73,-69,-0.8,-7.15256e-08,-1.4,-1
-7.0639e-02,-2,-6,-75,-79,-0.8,-2.4,-1.8,-2.2
-7.0562e-02,-4,2,-77,-73,-0.8,-7.15256e-08,-1.8,-1.4
-7.0485e-02,-2,-6,-77,-81,-0.8,-2.4,-1.8,-2.6
-7.0409e-02,-2,2,-79,-75,-0.8,-7.15256e-08,-1.8,-1
-7.0332e-02,-4,-6,-81,-83,-0.8,-2.4,-1.8,-2.6
-7.0255e-02,-4,2,-79,-77,-1.6,-7.15256e-08,-2.2,-1.4
-7.0178e-02,-4,-6,-81,-85,-1.6,-2.4,-2.2,-2.6
-7.0101e-02,-2,2,-83,-79,-1.6,-7.15256e-08,-2.2,-1.4
-7.0025e-02,-4,-6,-83,-87,-1.6,-2.4,-1.8,-3
-6.9948e-02,-4,2,-85,-81,-1.6,-0.8,-2.2,-1.8
-6.9871e-02,-4,-8,-85,-89,-1.6,-3.2,-2.6,-3
-6.9794e-02,-4,2,-85,-83,-1.6,-0.8,-2.2,-1.8
-6.9717e-02,-4,-6,-85,-89,-1.6,-2.4,-2.2,-3
-6.9641e-02,-2,2,-87,-83,-1.6,-0.8,-2.6,-1.8
-6.9564e-02,-4,-6,-87,-91,-1.6,-3.2,-2.6,-3
-6.9487e-02,-4,2,-89,-85,-2.4,-0.8,-2.6,-2.2
-6.9410e-02,-6,-6,-89,-93,-1.6,-3.2,-2.6,-3
-6.9333e-02,-4,2,-91,-87,-1.6,-0.8,-2.6,-2.2
-6.9257e-02,-4,-6,-89,-93,-1.6,-3.2,-2.6,-3.4
-6.9180e-02,-2,2,-91,-87,-2.4,-0.8,-2.6,-2.2
-6.9103e-02,-2,-6,-91,-93,-1.6,-3.2,-2.6,-3.4
-6.9026e-02,-1.3411e-07,2,-91,-89,-2.4,-0.8,-2.6,-2.2
-6.8949e-02,-2,-6,-91,-95,-2.4,-3.2,-3,-3.4
-6.8873e-02,-2,2,-93,-89,-1.6,-0.8,-3,-2.6
-6.8796e-02,-4,-6,-93,-95,-2.4,-3.2,-3,-3.4
-6.8719e-02,-2,2,-93,-89,-2.4,-0.8,-3,-2.6
-6.8642e-02,-2,-6,-91,-95,-2.4,-3.2,-3,-3.4
-6.8565e-02,-2,2,-91,-89,-1.6,-1.6,-3,-2.6
-6.8488e-02,-4,-6,-93,-93,-2.4,-3.2,-3,-3.8
-6.8412e-02,-4,2,-91,-87,-1.6,-1.6,-3.4,-2.6
-6.8335e-02,-4,-6,-91,-93,-2.4,-3.2,-3,-3.8
-6.8258e-02,-4,2,-91,-87,-2.4,-1.6,-3,-2.6
-6.8181e-02,-2,-6,-91,-91,-2.4,-3.2,-3.4,-3.8
-6.8104e-02,-2,2,-89,-85,-2.4,-1.6,-3,-2.6
-6.8028e-02,-2,-6,-89,-91,-2.4,-3.2,-3,-3.8
-6.7951e-02,-2,2,-87,-85,-2.4,-1.6,-3,-2.6
-6.7874e-02,-2,-6,-87,-89,-2.4,-3.2,-3.4,-3.8
-6.7797e-02,-2,2,-87,-83,-2.4,-1.6,-3.4,-2.6
-6.7720e-02,-2,-8,-87,-89,-2.4,-3.2,-3.4,-3.8
-6.7644e-02,-2,2,-85,-83,-1.6,-1.6,-3.4,-2.6
-6.7567e-02,-4,-6,-85,-87,-2.4,-3.2,-3.4,-3.8
-6.7490e-02,-4,2,-85,-81,-2.4,-1.6,-3.4,-2.6
-6.7413e-02,-2,-6,-83,-85,-2.4,-3.2,-3.4,-3.8
-6.7336e-02,-4,2,-81,-79,-2.4,-1.6,-3.4,-2.6
-6.7260e-02,-4,-6,-81,-83,-2.4,-4,-3.4,-3.8
-6.7183e-02,-4,2,-79,-77,-1.6,-0.8,-3.4,-2.6
-6.7106e-02,-2,-6,-79,-81,-2.4,-3.2,-3.4,-3.8
-6.7029e-02,-2,2,-77,-75,-2.4,-1.6,-3,-2.6
-6.6952e-02,-2,-8,-77,-79,-2.4,-3.2,-3.4,-3.8
-6.6876e-02,-4,2,-77,-73,-2.4,-1.6,-3,-2.6
-6.6799e-02,-2,-6,-75,-77,-2.4,-3.2,-3.4,-3.8
-6.6722e-02,-2,2,-75,-71,-1.6,-1.6,-3,-2.6
-6.6645e-02,-2,-6,-73,-75,-1.6,-3.2,-3,-3.8
-6.6568e-02,-2,2,-73,-69,-2.4,-1.6,-3,-2.6
-6.6492e-02,-4,-6,-71,-73,-2.4,-3.2,-3,-3.8
-6.6415e-02,-2,2,-71,-67,-2.4,-1.6,-3,-2.6
-6.6338e-02,-2,-6,-71,-71,-2.4,-3.2,-3.4,-3.8
-6.6261e-02,-4,2,-67,-65,-2.4,-0.8,-3.4,-2.6
-6.6184e-02,-4,-6,-67,-69,-2.4,-3.2,-3,-3.8
-6.6108e-02,-4,2,-65,-61,-1.6,-0.8,-3,-2.6
-6.6031e-02,-2,-6,-63,-65,-2.4,-3.2,-3,-3.4
-6.5954e-02,-4,2,-63,-59,-1.6,-0.8,-3,-2.6
-6.5877e-02,-2,-6,-61,-63,-1.6,-3.2,-3,-3.4
-6.5800e-02,-2,2,-59,-55,-1.6,-0.8,-3,-2.6
-6.5724e-02,-4,-6,-57,-61,-1.6,-3.2,-3,-3.4
-6.5647e-02,-4,2,-57,-51,-2.4,-0.8,-3,-2.6
-6.5570e-02,-4,-6,-55,-57,-2.4,-3.2,-2.6,-3.4
-6.5493e-02,-4,2,-53,-47,-2.4,-0.8,-2.6,-2.2
-6.5416e-02,-4,-6,-51,-53,-2.4,-3.2,-3,-3
-6.5339e-02,-2,2,-49,-43,-1.6,-0.8,-2.6,-2.2
-6.5263e-02,-4,-6,-45,-47,-1.6,-2.4,-2.6,-3
-6.5186e-02,-4,2,-43,-39,-1.6,-0.8,-2.6,-2.2
-6.5109e-02,-2,-6,-41,-43,-1.6,-2.4,-2.6,-3
-6.5032e-02,-2,2,-39,-35,-1.6,-0.8,-2.6,-1.8
-6.4955e-02,-2,-6,-37,-39,-1.6,-2.4,-2.2,-3
-6.4879e-02,-4,2,-35,-29,-0.8,-0.8,-2.2,-1.8
-6.4802e-02,-2,-6,-31,-35,-1.6,-2.4,-2.2,-2.6
-6.4725e-02,-2,2,-29,-25,-1.6,-7.15256e-08,-2.2,-1.8
-6.4648e-02,-2,-6,-27,-29,-0.8,-2.4,-2.2,-2.6
-6.4571e-02,-2,2,-25,-21,-1.6,-7.15256e-08,-2.2,-1.4
-6.4495e-02,-2,-6,-23,-25,-0.8,-2.4,-2.2,-2.6
-6.4418e-02,-4,2,-21,-17,-0.8,-7.15256e-08,-1.8,-1.4
-6.4341e-02,-4,-6,-19,-21,-0.8,-2.4,-1.8,-2.2
-6.4264e-02,-4,2,-17,-13,-0.8,-7.15256e-08,-1.8,-1.4
-6.4187e-02,-2,-6,-13,-17,-0.8,-2.4,-1.8,-2.2
-6.4111e-02,-2,2,-11,-9,-0.8,-7.15256e-08,-1.8,-1
-6.4034e-02,-2,-6,-11,-13,-0.8,-1.6,-1.4,-2.2
-6.3957e-02,-4,2,-9,-5,-0.8,-7.15256e-08,-1.4,-1
-6.3880e-02,-2,-6,-7,-7,-0.8,-1.6,-1.4,-1.8
-6.3803e-02,-2,2,-5,1,-0.8,0.8,-1.8,-1
-6.3727e-02,-4,-6,-3,-3,-0.8,-1.6,-1,-1.8
-6.3650e-02,-1.3411e-07,2,-1,5,-7.15256e-08,0.8,-1.4,-0.6
-6.3573e-02,-2,-6,1,-1,-0.8,-1.6,-1,-1.8
-6.3496e-02,-2,2,3,7,-7.15256e-08,0.8,-1,-0.6
-6.3419e-02,-2,-6,5,3,-7.15256e-08,-0.8,-1,-1.4
-6.3343e-02,-2,2,7,11,-7.15256e-08,0.8,-1,-0.6
-6.3266e-02,-4,-8,9,7,-0.8,-0.8,-1,-1.4
-6.3189e-02,-2,2,9,15,-7.15256e-08,0.8,-0.6,-0.2
-6.3112e-02,-2,-6,13,11,-7.15256e-08,-0.8,-0.6,-1.4
-6.3035e-02,-4,2,13,19,-7.15256e-08,0.8,-0.6,-0.2
-6.2959e-02,-4,-6,17,15,-7.15256e-08,-0.8,-0.6,-1
-6.2882e-02,-2,2,17,21,-7.15256e-08,1.6,-0.2,-0.2
-6.2805e-02,-2,-6,19,17,-7.15256e-08,-0.8,-0.2,-1
-6.2728e-02,-2,2,23,25,0.8,1.6,-0.2,0.2
-6.2651e-02,-4,-6,25,21,-7.15256e-08,-0.8,-0.2,-1
-6.2575e-02,-4,2,25,29,0.8,1.6,-0.2,0.2
-6.2498e-02,-2,-6,27,25,0.8,-0.8,-0.2,-0.6
-6.2421e-02,-2,2,31,35,0.8,1.6,-0.2,0.6
-6.2344e-02,-2,-6,33,31,0.8,-7.15256e-08,0.2,-0.6
-6.2267e-02,-2,2,35,39,0.8,1.6,-0.2,0.6
-6.2190e-02,-2,-6,37,35,0.8,-7.15256e-08,0.2,-0.2
-6.2114e-02,-2,2,37,43,1.6,1.6,0.2,1
-6.2037e-02,-4,-6,41,39,1.6,-7.15256e-08,0.2,-0.2
-6.1960e-02,-2,2,41,47,1.6,2.4,0.2,1
-6.1883e-02,-2,-6,45,43,1.6,-7.15256e-08,0.6,0.2
-6.1806e-02,-2,-1.3411e-07,45,49,1.6,2.4,0.6,1
-6.1730e-02,-2,-6,47,47,1.6,0.8,0.6,0.2
-6.1653e-02,-2,2,49,53,1.6,2.4,0.6,1.4
-6.1576e-02,-2,-6,51,49,1.6,0.8,1,0.6
-6.1499e-02,-4,2,55,57,1.6,3.2,1,1.4
-6.1422e-02,-4,-6,55,53,2.4,0.8,1,0.6
-6.1346e-02,-2,2,57,61,1.6,3.2,1,1.8
-6.1269e-02,-2,-6,57,57,1.6,0.8,1.4,0.6
-6.1192e-02,-4,2,59,65,1.6,3.2,1.4,1.8
-6.1115e-02,-4,-6,61,59,2.4,0.8,1.4,1
-6.1038e-02,-2,2,63,67,2.4,3.2,1.4,1.8
-6.0962e-02,-2,-6,65,63,2.4,1.6,1.4,1
-6.0885e-02,-4,2,67,71,2.4,3.2,1.8,2.2
-6.0808e-02,-2,-6,69,65,2.4,1.6,1.8,1.4
-6.0731e-02,-2,2,69,73,2.4,3.2,1.4,2.2
-6.0654e-02,-4,-6,71,69,2.4,1.6,1.8,1.4
-6.0578e-02,-4,2,71,75,2.4,4,1.8,2.2
-6.0501e-02,-4,-6,73,71,2.4,1.6,1.8,1.4
-6.0424e-02,-4,2,73,77,3.2,4,1.8,2.6
-6.0347e-02,-2,-6,77,73,3.2,1.6,2.2,1.8
-6.0270e-02,-2,2,77,81,3.2,4,2.2,2.6
-6.0194e-02,-4,-6,79,75,3.2,1.6,2.2,1.8
-6.0117e-02,-4,2,79,81,3.2,4,2.2,2.6
-6.0040e-02,-2,-6,79,77,3.2,1.6,2.2,1.8
-5.9963e-02,-2,2,81,83,3.2,4,2.6,3
-5.9886e-02,-2,-6,81,79,3.2,2.4,2.6,1.8
-5.9810e-02,-2,2,81,85,3.2,4,2.6,3
-5.9733e-02,-2,-6,83,81,3.2,2.4,2.6,2.2
-5.9656e-02,-2,2,83,87,3.2,4,2.6,3
-5.9579e-02,-2,-6,83,81,3.2,2.4,2.6,2.2
-5.9502e-02,-4,2,85,87,3.2,4,2.6,3.4
-5.9425e-02,-2,-6,85,83,3.2,2.4,2.6,2.2
-5.9349e-02,-2,2,85,89,3.2,4.8,3,3.4
-5.9272e-02,-2,-6,87,85,3.2,2.4,2.6,2.2
-5.9195e-02,-2,2,87,89,4,4.8,3,3.4
-5.9118e-02,-2,-6,87,85,4,2.4,3,2.6
-5.9041e-02,-2,2,87,91,3.2,4.8,2.6,3.4
-5.8965e-02,-2,-6,87,87,4,2.4,3,2.6
-5.8888e-02,-4,2,89,91,4,4.8,3,3.4
-5.8811e-02,-2,-6,89,85,4,2.4,3,2.6
-5.8734e-02,-2,2,89,91,4,4.8,3,3.8
-5.8657e-02,-1.3411e-07,-6,89,85,4,2.4,3.4,2.6
-5.8581e-02,-2,2,89,91,4,4.8,3,3.8
-5.8504e-02,-4,-6,89,85,4,2.4,3,2.6
-5.8427e-02,-4,2,87,91,4,4.8,3,3.8
-5.8350e-02,-2,-6,87,85,4,2.4,3,2.6
-5.8273e-02,-2,2,87,89,4,4.8,3.4,3.8
-5.8197e-02,-2,-6,87,83,4,2.4,3.4,3
-5.8120e-02,-4,2,87,89,4,4.8,3.4,3.8
-5.8043e-02,-2,-6,85,81,4,2.4,3.4,2.6
-5.7966e-02,-4,2,85,87,4,4.8,3,3.8
-5.7889e-02,-4,-6,83,81,4,2.4,3.4,3
-5.7813e-02,-4,2,83,87,4,4.8,3.4,3.8
-5.7736e-02,-2,-6,83,79,4,2.4,3.4,2.6
-5.7659e-02,-4,2,83,85,4,4.8,3.4,3.8
-5.7582e-02,-2,-6,81,77,4,2.4,3.4,3
-5.7505e-02,-4,2,79,83,4,4.8,3.4,3.8
-5.7429e-02,-4,-6,79,75,4,2.4,3.4,2.6
-5.7352e-02,-4,2,79,81,4,4.8,3.4,3.8
-5.7275e-02,-2,-6,77,75,4,2.4,3.4,3
-5.7198e-02,-4,2,77,81,4,4.8,3.4,3.8
-5.7121e-02,-4,-6,75,71,4,2.4,3.4,3
-5.7045e-02,-4,2,75,77,4,4.8,3.4,3.8
-5.6968e-02,-4,-6,73,71,3.2,2.4,3.4,3
-5.6891e-02,-2,2,73,75,4,4.8,3.4,3.8
-5.6814e-02,-2,-6,73,69,4,2.4,3,2.6
-5.6737e-02,-2,2,71,75,4,4.8,3.4,3.8
-5.6661e-02,-2,-6,71,67,3.2,2.4,3.4,3
-5.6584e-02,-4,2,69,73,4,4.8,3.4,3.8
-5.6507e-02,-2,-6,69,63,4,2.4,3.4,3
-5.6430e-02,-4,2,67,71,4,4.8,3.4,3.8
-5.6353e-02,-2,-6,67,61,4,2.4,3,2.6
-5.6276e-02,-2,2,65,67,4,4.8,3.4,3.8
-5.6200e-02,-2,-6,65,59,4,2.4,3,2.6
-5.6123e-02,-2,2,63,65,4,4.8,3,3.8
-5.6046e-02,-4,-6,61,55,4,2.4,3.4,2.6
-5.5969e-02,-2,2,59,63,3.2,4.8,3.4,3.8
-5.5892e-02,-2,-6,57,53,3.2,2.4,3,2.6
-5.5816e-02,-2,2,57,59,3.2,4.8,3,3.4
-5.5739e-02,-2,-6,55,49,4,2.4,3,2.6
-5.5662e-02,-2,2,53,55,3.2,4.8,3,3.8
-5.5585e-02,-2,-6,51,45,3.2,2.4,3,2.2
-5.5508e-02,-2,2,49,53,4,4,3,3.4
-5.5432e-02,-4,-6,47,41,3.2,2.4,3,2.2
-5.5355e-02,-2,2,45,49,3.2,4,3,3.4
-5.5278e-02,-4,-6,43,37,3.2,2.4,2.6,2.2
-5.5201e-02,-2,2,41,45,3.2,4,2.6,3.4
-5.5124e-02,-2,-6,37,31,3.2,1.6,2.6,2.2
-5.5048e-02,-4,2,35,39,3.2,4,2.6,3
-5.4971e-02,-2,-6,35,27,2.4,1.6,2.6,1.8
-5.4894e-02,-2,2,33,35,3.2,4,2.6,3
-5.4817e-02,-2,-6,29,23,2.4,1.6,2.2,1.8
-5.4740e-02,-2,2,27,31,3.2,4,2.6,3
-5.4664e-02,-2,-8,25,19,3.2,1.6,2.2,1.8
-5.4587e-02,-2,2,23,27,3.2,4,2.6,3
-5.4510e-02,-2,-6,21,13,2.4,1.6,2.2,1.4
-5.4433e-02,-2,2,17,21,2.4,4,2.2,2.6
-5.4356e-02,-2,-6,15,9,2.4,1.6,1.8,1.4
-5.4280e-02,-2,-1.3411e-07,13,17,2.4,3.2,1.8,2.6
-5.4203e-02,-2,-6,11,5,2.4,1.6,1.8,1.4
-5.4126e-02,-4,2,9,13,2.4,3.2,1.8,2.2
-5.4049e-02,-2,-6,7,1,2.4,0.8,1.8,1.4
-5.3972e-02,-2,2,5,9,1.6,3.2,1.4,2.2
-5.3896e-02,-2,-6,3,-3,1.6,0.8,1.8,1
-5.3819e-02,-2,2,1,5,1.6,3.2,1.4,2.2
-5.3742e-02,-4,-6,1,-7,1.6,0.8,1.4,0.6
-5.3665e-02,-4,2,-3,1,2.4,3.2,1.4,1.8
-5.3588e-02,-2,-6,-5,-11,1.6,0.8,1.4,0.6
-5.3512e-02,-4,2,-7,-3,1.6,2.4,1,1.8
-5.3435e-02,-2,-6,-7,-13,1.6,0.8,1,0.6
-5.3358e-02,-2,2,-11,-5,1.6,2.4,1.4,1.8
-5.3281e-02,-2,-6,-11,-17,1.6,0.8,1,0.6
-5.3204e-02,-2,2,-13,-9,1.6,2.4,1,1.4
-5.3127e-02,-2,-6,-15,-21,0.8,-7.15256e-08,1,0.2
-5.3051e-02,-2,2,-17,-13,1.6,2.4,1,1.4
-5.2974e-02,-4,-6,-19,-25,0.8,-7.15256e-08,1,0.2
-5.2897e-02,-2,2,-21,-17,1.6,2.4,0.6,1.4
-5.2820e-02,-2,-6,-23,-29,1.6,-7.15256e-08,0.6,0.2
-5.2743e-02,-2,2,-25,-21,0.8,2.4,0.6,1
-5.2667e-02,-4,-6,-27,-33,0.8,-7.15256e-08,0.2,-0.2
-5.2590e-02,-2,2,-29,-25,0.8,1.6,0.6,1
-5.2513e-02,-2,-6,-31,-37,0.8,-7.15256e-08,0.6,-0.2
-5.2436e-02,-2,2,-33,-29,0.8,1.6,0.2,0.6
-5.2359e-02,-2,-6,-35,-41,0.8,-0.8,0.2,-0.6
-5.2283e-02,-2,2,-37,-33,0.8,1.6,0.2,0.6
-5.2206e-02,-4,-6,-39,-45,0.8,-0.8,-0.2,-0.6
-5.2129e-02,-4,2,-41,-37,0.8,1.6,-0.2,0.6
-5.2052e-02,-2,-6,-43,-49,0.8,-0.8,-0.2,-1
-5.1975e-02,-4,2,-45,-41,0.8,1.6,-0.2,0.2
-5.1899e-02,-2,-6,-49,-53,-7.15256e-08,-1.6,-0.2,-1
-5.1822e-02,-4,2,-49,-45,-7.15256e-08,0.8,-0.2,0.2
-5.1745e-02,-2,-6,-51,-57,-7.15256e-08,-0.8,-0.2,-1
-5.1668e-02,-2,2,-53,-49,-7.15256e-08,0.8,-0.6,-0.2
-5.1591e-02,-4,-6,-57,-61,-7.15256e-08,-1.6,-0.6,-1.4
-5.1515e-02,-2,2,-57,-53,-7.15256e-08,0.8,-0.6,-0.2
-5.1438e-02,-2,-6,-59,-63,-0.8,-1.6,-1,-1.4
-5.1361e-02,-2,2,-61,-57,-0.8,0.8,-1,-0.6
-5.1284e-02,-2,-6,-63,-67,-7.15256e-08,-1.6,-1,-1.8
-5.1207e-02,-2,2,-65,-59,-0.8,0.8,-1,-0.6
-5.1131e-02,-2,-6,-65,-71,-7.15256e-08,-1.6,-1.4,-1.8
-5.1054e-02,-2,2,-67,-63,-0.8,-7.15256e-08,-1.4,-0.6
-5.0977e-02,-2,-6,-69,-73,-0.8,-2.4,-1.4,-1.8
-5.0900e-02,-2,2,-71,-67,-0.8,-7.15256e-08,-1.4,-1
-5.0823e-02,-2,-6,-71,-75,-0.8,-2.4,-1.4,-2.2
-5.0747e-02,-2,2,-73,-69,-0.8,-7.15256e-08,-1.4,-1
-5.0670e-02,-2,-6,-75,-79,-1.6,-2.4,-1.4,-2.2
-5.0593e-02,-4,2,-75,-73,-1.6,-7.15256e-08,-1.8,-1
