corrections/scope/1P.CSV

Model,DPO2014B
Firmware Version,1.52

Point Format,Y,,,,,,,
Horizontal Units,S,,,,,,,
Horizontal Scale,0.1,,,,,,,
Sample Interval,0.000256016,,,,,,,
Filter Frequency,1e+08,,,,,,,
Record Length,3906,,,,,,,
Gating,0.0% to 100.0%,,0.0% to 100.0%,,0.0% to 100.0%,,0.0% to 100.0%,
Probe Attenuation,100,,50,,10,,10,
Vertical Units,V,,V,,A,,A,
Vertical Offset,0,,0,,0,,0,
Vertical Scale,50,,50,,2,,10,
Label,,,,,,,,
TIME,CH1,CH1 Peak Detect,CH2,CH2 Peak Detect,CH3,CH3 Peak Detect,CH4,CH4 Peak Detect
-2.040e-01,-44,-46,-38,-40,-2.88,-2.96,-2,-2.4
-2.037e-01,-34,-22,-30,-20,-2.72,-2.56,-2,-1.2
-2.035e-01,-24,-28,-20,-24,-2.64,-2.72,-2,-2.4
-2.032e-01,-16,-6,-14,-6,-2.56,-2.24,-2,-1.2
-2.030e-01,-10,-12,-6,-10,-2.32,-2.48,-1.6,-2
-2.027e-01,4.47035e-08,10,4.47035e-08,8,-2.16,-1.92,-1.6,-0.8
-2.025e-01,6,2,8,4,-1.92,-2.08,-1.6,-2
-2.022e-01,14,24,12,22,-1.76,-1.52,-1.2,-0.4
-2.020e-01,22,18,20,18,-1.52,-1.68,-1.6,-1.6
-2.017e-01,30,40,28,36,-1.36,-1.04,-1.2,-0.4
-2.014e-01,38,34,36,32,-1.04,-1.2,-0.8,-1.2
-2.012e-01,46,56,44,50,-0.8,-0.56,-0.8,1.78814e-08
-2.009e-01,56,50,48,46,-0.56,-0.72,-0.4,-0.8
-2.007e-01,62,70,56,64,-0.32,3.57628e-09,1.78814e-08,0.4
-2.004e-01,70,64,62,58,-0.08,-0.16,1.78814e-08,-0.4
-2.002e-01,76,82,68,74,0.24,0.48,1.78814e-08,0.8
-1.999e-01,80,76,74,70,0.48,0.32,0.4,1.78814e-08
-1.996e-01,84,92,78,82,0.72,0.96,0.4,1.2
-1.994e-01,90,86,82,78,0.96,0.8,0.4,1.78814e-08
-1.991e-01,92,100,84,90,1.2,1.44,0.8,1.6
-1.989e-01,96,92,88,84,1.36,1.2,0.8,0.4
-1.986e-01,98,106,90,94,1.6,1.84,1.2,2
-1.984e-01,102,100,94,90,1.84,1.68,1.2,0.8
-1.981e-01,106,110,94,98,2.08,2.32,1.2,2
-1.979e-01,106,100,96,90,2.24,2.08,1.6,0.8
-1.976e-01,104,110,96,98,2.4,2.56,1.6,2
-1.973e-01,104,96,92,86,2.56,2.4,1.6,1.2
-1.971e-01,102,106,90,96,2.64,2.8,1.6,2.4
-1.968e-01,98,90,88,80,2.8,2.64,1.6,1.2
-1.966e-01,96,102,86,90,2.88,3.04,2,2.4
-1.963e-01,92,82,84,74,2.96,2.8,2,1.6
-1.961e-01,88,96,78,84,3.04,3.12,2,2.8
-1.958e-01,84,74,74,66,3.12,2.88,2,1.6
-1.956e-01,82,88,72,78,3.12,3.2,2,2.8
-1.953e-01,76,64,66,56,3.2,2.96,2,1.6
-1.950e-01,72,80,62,70,3.2,3.28,2,2.8
-1.948e-01,64,48,56,42,3.2,2.88,2,1.6
-1.945e-01,58,70,50,60,3.12,3.2,2,2.8
-1.943e-01,50,30,42,26,3.04,2.72,2,1.2
-1.940e-01,40,54,34,46,2.96,3.12,1.6,2.4
-1.938e-01,32,14,28,10,2.8,2.4,1.6,1.2
-1.935e-01,24,36,18,28,2.64,2.88,1.6,2.4
-1.932e-01,16,-2,10,-4,2.56,2.08,1.6,0.8
-1.930e-01,8,20,4,12,2.4,2.64,1.6,2
-1.927e-01,4.47035e-08,-16,-4,-18,2.16,1.68,1.2,0.8
-1.925e-01,-8,4,-10,4.47035e-08,2,2.32,1.2,2
-1.922e-01,-14,-34,-18,-32,1.84,1.28,0.8,0.4
-1.920e-01,-24,-10,-24,-14,1.6,1.92,0.8,1.6
-1.917e-01,-30,-50,-32,-48,1.36,0.8,0.8,1.78814e-08
-1.915e-01,-40,-26,-40,-28,1.12,1.44,0.8,1.2
-1.912e-01,-48,-64,-46,-62,0.88,0.32,0.4,-0.4
-1.909e-01,-54,-42,-54,-42,0.64,0.96,0.4,0.8
-1.907e-01,-62,-78,-60,-72,0.4,-0.24,1.78814e-08,-0.8
-1.904e-01,-70,-56,-66,-56,0.08,0.48,-0.4,0.4
-1.902e-01,-74,-88,-72,-84,-0.16,-0.72,-0.4,-1.2
-1.899e-01,-80,-70,-76,-70,-0.4,-0.08,-0.4,1.78814e-08
-1.897e-01,-86,-96,-80,-90,-0.64,-1.2,-0.8,-1.6
-1.894e-01,-88,-82,-86,-78,-0.88,-0.56,-0.8,1.78814e-08
-1.892e-01,-96,-104,-88,-96,-1.12,-1.6,-1.2,-1.6
-1.889e-01,-98,-90,-90,-86,-1.36,-1.04,-0.8,-0.4
-1.886e-01,-102,-110,-96,-100,-1.52,-2.08,-1.2,-2
-1.884e-01,-102,-96,-98,-92,-1.76,-1.44,-1.2,-0.8
-1.881e-01,-108,-110,-100,-102,-2,-2.4,-1.6,-2
-1.879e-01,-108,-102,-100,-96,-2.16,-1.84,-1.6,-1.2
-1.876e-01,-106,-110,-100,-102,-2.4,-2.72,-1.6,-2.4
-1.874e-01,-106,-98,-98,-94,-2.48,-2.24,-2,-1.2
-1.871e-01,-104,-106,-94,-98,-2.56,-2.96,-2,-2.4
-1.868e-01,-100,-94,-94,-88,-2.72,-2.48,-2,-1.2
-1.866e-01,-96,-100,-90,-92,-2.8,-3.04,-2,-2.4
-1.863e-01,-92,-86,-88,-82,-2.88,-2.72,-2,-1.6
-1.861e-01,-90,-94,-84,-86,-2.96,-3.2,-2,-2.8
-1.858e-01,-84,-80,-80,-74,-3.04,-2.88,-2.4,-1.6
-1.856e-01,-84,-86,-76,-78,-3.04,-3.2,-2,-2.8
-1.853e-01,-78,-70,-72,-64,-3.12,-2.96,-2.4,-1.6
-1.851e-01,-74,-76,-68,-70,-3.04,-3.2,-2.4,-2.8
-1.848e-01,-66,-58,-62,-54,-3.12,-2.96,-2,-1.6
-1.845e-01,-60,-64,-56,-58,-3.12,-3.2,-2.4,-2.8
-1.843e-01,-52,-40,-48,-38,-2.96,-2.8,-2,-1.6
-1.840e-01,-42,-46,-38,-42,-2.88,-3.04,-2,-2.4
-1.838e-01,-36,-24,-32,-22,-2.72,-2.56,-2,-1.2
-1.835e-01,-24,-30,-22,-26,-2.64,-2.8,-2,-2.4
-1.833e-01,-18,-8,-16,-6,-2.48,-2.24,-2,-1.2
-1.830e-01,-10,-14,-6,-10,-2.32,-2.48,-1.6,-2
-1.828e-01,-2,8,4.47035e-08,8,-2.16,-1.92,-1.6,-1.2
-1.825e-01,4,2,6,4,-2,-2.08,-1.6,-2
-1.822e-01,10,24,12,20,-1.76,-1.52,-1.2,-0.4
-1.820e-01,20,16,20,16,-1.6,-1.68,-1.2,-1.6
-1.817e-01,28,40,28,34,-1.36,-1.12,-0.8,-0.4
-1.815e-01,36,32,34,32,-1.12,-1.28,-0.8,-1.2
-1.812e-01,46,54,40,50,-0.8,-0.56,-0.4,1.78814e-08
-1.810e-01,52,48,48,44,-0.64,-0.72,-0.4,-0.8
-1.807e-01,60,70,54,62,-0.32,-0.08,-0.4,0.4
-1.804e-01,68,62,62,58,-0.08,-0.24,1.78814e-08,-0.4
-1.802e-01,74,82,68,74,0.16,0.48,1.78814e-08,0.8
-1.799e-01,78,76,72,70,0.4,0.32,1.78814e-08,1.78814e-08
-1.797e-01,84,92,76,82,0.72,0.88,0.4,1.2
-1.794e-01,88,84,80,78,0.88,0.72,0.4,1.78814e-08
-1.792e-01,92,98,84,88,1.12,1.36,0.4,1.6
-1.789e-01,94,92,88,84,1.36,1.2,0.8,0.4
-1.787e-01,100,106,90,94,1.6,1.84,1.2,1.6
-1.784e-01,102,98,92,90,1.84,1.6,1.2,0.8
-1.781e-01,104,110,94,98,2,2.24,1.2,2
-1.779e-01,106,100,96,92,2.24,2.08,1.6,1.2
-1.776e-01,106,110,94,98,2.32,2.56,1.6,2
-1.774e-01,104,96,94,86,2.56,2.32,2,1.2
-1.771e-01,102,106,92,96,2.64,2.8,1.6,2.4
-1.769e-01,100,90,88,80,2.72,2.56,2,1.2
-1.766e-01,96,102,86,92,2.88,2.96,2,2.4
-1.764e-01,92,84,84,74,2.96,2.8,1.6,1.6
-1.761e-01,90,96,78,86,3.04,3.12,2,2.4
-1.758e-01,86,74,76,66,3.12,2.88,1.6,1.6
-1.756e-01,82,90,72,78,3.12,3.2,2,2.8
-1.753e-01,78,64,68,56,3.12,2.96,2,1.6
-1.751e-01,72,82,64,70,3.2,3.28,2,2.8
-1.748e-01,66,50,56,42,3.12,2.88,2,1.6
-1.746e-01,60,70,52,60,3.2,3.28,2,2.8
-1.743e-01,52,32,44,26,3.04,2.72,2,1.2
-1.740e-01,42,56,34,46,2.96,3.12,1.6,2.4
-1.738e-01,32,14,28,10,2.8,2.4,2,1.2
-1.735e-01,24,38,18,30,2.72,2.88,1.6,2.4
-1.733e-01,16,-2,12,-4,2.56,2.08,1.6,0.8
-1.730e-01,8,20,4,14,2.4,2.64,1.2,2
-1.728e-01,4.47035e-08,-16,-4,-18,2.24,1.76,1.6,0.8
-1.725e-01,-8,6,-10,4.47035e-08,2.08,2.32,1.2,2
-1.723e-01,-16,-32,-16,-32,1.84,1.36,1.2,0.4
-1.720e-01,-22,-10,-22,-14,1.68,2,0.8,1.6
-1.717e-01,-30,-48,-30,-46,1.44,0.88,0.8,1.78814e-08
-1.715e-01,-38,-26,-38,-28,1.2,1.52,0.8,1.2
-1.712e-01,-46,-62,-44,-60,0.88,0.32,0.4,-0.4
-1.710e-01,-54,-42,-52,-42,0.64,1.04,0.4,0.8
-1.707e-01,-60,-76,-60,-72,0.4,-0.16,1.78814e-08,-0.8
-1.705e-01,-68,-56,-66,-56,0.08,0.48,-0.4,0.4
-1.702e-01,-74,-88,-72,-82,-0.16,-0.64,-0.4,-1.2
-1.699e-01,-82,-70,-78,-68,-0.4,3.57628e-09,-0.4,0.4
-1.697e-01,-84,-96,-80,-90,-0.64,-1.12,-0.4,-1.2
-1.694e-01,-90,-80,-84,-78,-0.8,-0.56,-0.8,1.78814e-08
-1.692e-01,-94,-104,-90,-96,-1.04,-1.6,-0.8,-1.6
-1.689e-01,-96,-90,-92,-86,-1.28,-0.96,-0.8,-0.4
-1.687e-01,-100,-110,-94,-100,-1.52,-2,-1.2,-2
-1.684e-01,-104,-96,-98,-92,-1.76,-1.44,-1.2,-0.8
-1.682e-01,-106,-110,-100,-102,-1.92,-2.4,-1.6,-2
-1.679e-01,-108,-102,-102,-96,-2.16,-1.84,-1.6,-1.2
-1.676e-01,-106,-110,-100,-102,-2.32,-2.72,-1.6,-2.4
-1.674e-01,-106,-100,-98,-94,-2.48,-2.24,-2,-1.2
-1.671e-01,-104,-106,-96,-98,-2.56,-2.88,-2,-2.4
-1.669e-01,-100,-94,-94,-88,-2.72,-2.48,-1.6,-1.2
-1.666e-01,-98,-100,-92,-94,-2.8,-3.04,-2,-2.4
-1.664e-01,-94,-88,-88,-82,-2.88,-2.72,-2.4,-1.6
-1.661e-01,-92,-94,-84,-86,-2.96,-3.2,-2,-2.8
-1.659e-01,-86,-80,-80,-74,-3.04,-2.88,-2,-1.6
-1.656e-01,-84,-86,-78,-80,-3.04,-3.2,-2.4,-2.8
-1.653e-01,-80,-70,-74,-66,-3.04,-3.04,-2,-1.6
-1.651e-01,-74,-78,-68,-70,-3.12,-3.28,-2,-2.8
-1.648e-01,-66,-58,-62,-54,-3.12,-3.04,-2,-1.6
-1.646e-01,-62,-66,-56,-60,-3.12,-3.2,-2,-2.8
-1.643e-01,-54,-42,-48,-40,-2.96,-2.88,-2.4,-1.6
-1.641e-01,-46,-48,-40,-44,-2.88,-3.04,-2,-2.4
-1.638e-01,-36,-24,-32,-22,-2.8,-2.64,-2,-1.6
-1.635e-01,-26,-32,-24,-26,-2.64,-2.8,-1.6,-2.4
-1.633e-01,-18,-8,-16,-8,-2.48,-2.32,-1.6,-1.2
-1.630e-01,-10,-14,-10,-12,-2.4,-2.48,-1.6,-2
-1.628e-01,-2,8,-2,6,-2.16,-1.92,-1.6,-0.8
-1.625e-01,2,4.47035e-08,6,2,-2,-2.16,-1.6,-2
-1.623e-01,10,22,12,20,-1.84,-1.6,-1.2,-0.8
-1.620e-01,20,16,20,16,-1.6,-1.76,-1.2,-1.6
-1.618e-01,26,38,26,34,-1.44,-1.12,-0.8,-0.4
-1.615e-01,36,32,34,30,-1.12,-1.28,-0.8,-1.2
-1.612e-01,42,54,40,48,-0.88,-0.64,-0.8,1.78814e-08
-1.610e-01,52,48,48,44,-0.64,-0.72,-0.4,-1.2
-1.607e-01,58,68,54,62,-0.4,-0.08,-0.4,0.4
-1.605e-01,66,62,60,58,-0.16,-0.24,1.78814e-08,-0.4
-1.602e-01,72,82,66,74,0.16,0.4,1.78814e-08,0.8
-1.600e-01,80,74,72,68,0.32,0.24,0.4,-0.4
-1.597e-01,84,90,78,82,0.64,0.88,0.4,0.8
-1.595e-01,88,84,80,78,0.88,0.72,0.8,1.78814e-08
-1.592e-01,92,98,84,88,1.12,1.36,0.8,1.6
-1.589e-01,96,92,86,84,1.28,1.2,0.8,0.4
-1.587e-01,100,104,90,94,1.52,1.84,0.8,1.6
-1.584e-01,102,98,92,90,1.76,1.6,1.2,0.8
-1.582e-01,104,108,94,98,2,2.24,1.2,2
-1.579e-01,106,100,96,92,2.24,2,1.6,1.2
-1.577e-01,106,110,96,98,2.32,2.56,1.2,2
-1.574e-01,104,96,94,88,2.48,2.32,1.6,1.2
-1.571e-01,102,108,92,96,2.64,2.8,1.6,2.4
-1.569e-01,98,90,90,82,2.72,2.56,1.6,1.2
-1.566e-01,98,104,86,92,2.88,3.04,1.6,2.4
-1.564e-01,94,84,84,74,2.96,2.8,1.6,1.6
-1.561e-01,90,98,80,86,3.04,3.12,2,2.4
-1.559e-01,86,76,76,68,3.12,2.88,2,1.6
-1.556e-01,84,90,72,80,3.12,3.2,2,2.8
-1.554e-01,78,64,68,56,3.2,2.96,2,1.6
-1.551e-01,72,82,64,72,3.2,3.28,2,2.8
-1.548e-01,68,50,58,44,3.2,2.96,2,1.6
-1.546e-01,60,72,52,60,3.12,3.28,2,2.4
-1.543e-01,52,32,46,28,3.12,2.72,2,1.2
-1.541e-01,44,56,36,48,2.96,3.2,1.6,2.4
-1.538e-01,34,16,28,12,2.88,2.48,1.6,1.2
-1.536e-01,26,40,20,32,2.72,2.96,1.6,2.4
-1.533e-01,20,4.47035e-08,12,-2,2.64,2.16,1.6,0.8
-1.531e-01,8,22,4,16,2.48,2.64,1.6,2
-1.528e-01,4.47035e-08,-16,-2,-16,2.24,1.76,1.2,0.8
-1.525e-01,-6,6,-8,2,2.08,2.4,1.2,2
-1.523e-01,-12,-30,-16,-30,1.84,1.36,1.2,0.4
-1.520e-01,-20,-8,-22,-12,1.68,2,0.8,1.6
-1.518e-01,-28,-48,-30,-46,1.44,0.88,0.8,1.78814e-08
-1.515e-01,-38,-24,-36,-26,1.2,1.52,0.8,1.2
-1.513e-01,-44,-62,-44,-60,0.96,0.4,0.4,-0.4
-1.510e-01,-52,-40,-52,-42,0.72,1.04,0.4,1.2
-1.507e-01,-58,-74,-60,-72,0.4,-0.16,1.78814e-08,-0.8
-1.505e-01,-66,-56,-64,-54,0.16,0.56,1.78814e-08,0.4
-1.502e-01,-72,-88,-70,-82,-0.08,-0.64,-0.4,-1.2
-1.500e-01,-82,-68,-76,-68,-0.32,3.57628e-09,-0.4,0.4
-1.497e-01,-86,-96,-80,-90,-0.56,-1.12,-0.8,-1.2
-1.495e-01,-88,-80,-84,-78,-0.72,-0.48,-0.8,1.78814e-08
-1.492e-01,-92,-102,-88,-96,-1.04,-1.6,-0.8,-1.6
-1.490e-01,-94,-88,-92,-86,-1.28,-0.96,-0.8,-0.4
-1.487e-01,-100,-108,-94,-100,-1.52,-2,-1.2,-2
-1.484e-01,-104,-96,-96,-92,-1.68,-1.36,-1.2,-0.8
-1.482e-01,-106,-110,-98,-102,-1.92,-2.4,-1.6,-2
-1.479e-01,-106,-102,-100,-96,-2.08,-1.84,-1.6,-1.2
-1.477e-01,-108,-110,-100,-102,-2.32,-2.64,-1.6,-2.4
-1.474e-01,-106,-100,-98,-94,-2.4,-2.24,-2,-1.2
-1.472e-01,-104,-106,-96,-98,-2.56,-2.88,-2,-2.4
-1.469e-01,-102,-94,-94,-90,-2.72,-2.48,-2,-1.6
-1.467e-01,-98,-102,-92,-94,-2.8,-3.04,-2,-2.8
-1.464e-01,-94,-88,-88,-82,-2.88,-2.72,-2,-1.6
-1.461e-01,-92,-94,-84,-86,-2.96,-3.2,-2.4,-2.8
-1.459e-01,-86,-80,-82,-76,-3.04,-2.88,-2,-1.6
-1.456e-01,-84,-88,-78,-80,-3.04,-3.2,-2,-2.8
-1.454e-01,-78,-72,-74,-66,-3.12,-2.96,-2.4,-1.6
-1.451e-01,-76,-78,-68,-72,-3.12,-3.2,-2.4,-2.8
-1.449e-01,-70,-60,-62,-56,-3.12,-3.04,-2.4,-1.6
-1.446e-01,-62,-66,-58,-60,-3.12,-3.2,-2,-2.8
-1.443e-01,-54,-44,-50,-40,-3.04,-2.88,-2,-1.6
-1.441e-01,-44,-50,-42,-44,-2.88,-3.04,-2,-2.4
-1.438e-01,-38,-26,-32,-24,-2.8,-2.64,-2,-1.2
-1.436e-01,-26,-32,-26,-28,-2.72,-2.8,-2,-2.4
-1.433e-01,-18,-10,-16,-8,-2.56,-2.32,-1.6,-1.2
-1.431e-01,-12,-16,-10,-12,-2.4,-2.56,-1.6,-2
-1.428e-01,-6,6,-2,6,-2.24,-2,-1.6,-1.2
-1.426e-01,4,4.47035e-08,2,2,-2,-2.16,-1.6,-2
-1.423e-01,12,20,10,18,-1.84,-1.6,-1.6,-0.8
-1.420e-01,18,14,18,14,-1.6,-1.76,-1.2,-1.6
-1.418e-01,26,38,24,34,-1.44,-1.12,-0.8,-0.4
-1.415e-01,34,32,32,30,-1.2,-1.28,-0.8,-1.2
-1.413e-01,42,52,40,48,-0.96,-0.64,-0.8,1.78814e-08
-1.410e-01,50,46,48,42,-0.64,-0.8,-0.4,-0.8
-1.408e-01,58,68,54,60,-0.4,-0.16,1.78814e-08,0.4
-1.405e-01,64,62,60,56,-0.24,-0.32,1.78814e-08,-0.4
-1.403e-01,72,80,64,72,0.08,0.4,1.78814e-08,0.8
-1.400e-01,78,74,72,68,0.32,0.24,1.78814e-08,-0.4
-1.397e-01,84,90,76,82,0.56,0.88,0.4,1.2
-1.395e-01,86,84,80,78,0.88,0.72,0.4,1.78814e-08
-1.392e-01,92,98,82,88,1.04,1.28,0.8,1.6
-1.390e-01,94,90,86,84,1.28,1.12,0.8,0.4
-1.387e-01,100,104,90,94,1.52,1.76,0.8,1.6
-1.385e-01,102,98,92,90,1.76,1.6,1.2,0.8
-1.382e-01,106,108,94,98,1.92,2.24,1.2,2
-1.379e-01,106,100,94,92,2.16,2,1.2,0.8
-1.377e-01,106,110,96,98,2.32,2.56,1.6,2
-1.374e-01,104,96,94,88,2.48,2.32,1.6,1.2
-1.372e-01,102,108,92,96,2.64,2.8,1.6,2.4
-1.369e-01,100,92,90,82,2.72,2.56,1.6,1.2
-1.367e-01,98,104,86,92,2.88,2.96,2,2.4
-1.364e-01,92,84,84,74,2.88,2.8,2,1.6
-1.362e-01,90,98,80,86,2.96,3.12,2,2.4
-1.359e-01,86,76,76,68,3.04,2.88,2,1.6
-1.356e-01,82,90,74,80,3.12,3.2,2,2.4
-1.354e-01,78,66,68,58,3.2,2.96,2,1.6
-1.351e-01,74,82,64,72,3.2,3.28,2,2.8
-1.349e-01,68,52,58,44,3.2,2.96,2,1.6
-1.346e-01,62,72,52,62,3.12,3.28,2,2.8
-1.344e-01,54,34,46,28,3.04,2.72,2,1.2
-1.341e-01,46,58,38,48,3.04,3.2,1.6,2.4
-1.339e-01,36,16,30,12,2.88,2.48,2,1.2
-1.336e-01,28,40,22,32,2.8,2.96,1.6,2.4
-1.333e-01,18,2,14,-2,2.64,2.16,1.6,0.8
-1.331e-01,12,24,6,16,2.48,2.64,1.6,2
-1.328e-01,2,-14,4.47035e-08,-16,2.32,1.76,1.6,0.8
-1.326e-01,-4,8,-8,2,2.16,2.4,1.6,2
-1.323e-01,-12,-30,-14,-30,1.92,1.36,1.2,0.4
-1.321e-01,-20,-8,-20,-10,1.76,2,1.2,1.6
-1.318e-01,-28,-46,-30,-44,1.52,0.88,0.8,1.78814e-08
-1.315e-01,-36,-24,-36,-26,1.28,1.6,0.8,1.2
-1.313e-01,-44,-60,-42,-58,1.04,0.4,0.4,-0.4
-1.310e-01,-52,-38,-52,-40,0.72,1.12,0.4,0.8
-1.308e-01,-58,-74,-58,-70,0.48,-0.16,1.78814e-08,-0.8
-1.305e-01,-66,-54,-64,-54,0.24,0.56,1.78814e-08,0.4
-1.303e-01,-72,-86,-70,-82,3.57628e-09,-0.64,-0.4,-0.8
-1.300e-01,-78,-68,-76,-66,-0.32,3.57628e-09,-0.4,0.4
-1.298e-01,-86,-94,-80,-90,-0.56,-1.12,-0.8,-1.2
-1.295e-01,-86,-78,-84,-78,-0.8,-0.48,-0.8,1.78814e-08
-1.292e-01,-92,-102,-88,-96,-1.04,-1.52,-0.8,-1.6
-1.290e-01,-96,-88,-90,-86,-1.2,-0.96,-1.2,-0.4
-1.287e-01,-100,-108,-94,-100,-1.44,-2,-1.2,-2
-1.285e-01,-104,-96,-96,-90,-1.68,-1.36,-1.6,-0.8
-1.282e-01,-104,-110,-98,-102,-1.84,-2.32,-1.2,-2
-1.280e-01,-106,-100,-100,-96,-2.08,-1.84,-1.6,-1.2
-1.277e-01,-106,-110,-100,-102,-2.24,-2.64,-1.6,-2.4
-1.275e-01,-106,-100,-98,-94,-2.4,-2.16,-2,-1.2
-1.272e-01,-102,-108,-98,-98,-2.56,-2.88,-1.6,-2.4
-1.269e-01,-100,-94,-94,-90,-2.72,-2.48,-2,-1.2
-1.267e-01,-98,-102,-92,-94,-2.8,-3.04,-2,-2.4
-1.264e-01,-94,-88,-88,-84,-2.88,-2.72,-2,-1.6
-1.262e-01,-92,-96,-86,-88,-2.96,-3.2,-2,-2.8
-1.259e-01,-90,-80,-80,-76,-2.96,-2.88,-2,-1.6
-1.257e-01,-84,-88,-78,-80,-3.04,-3.2,-2,-2.8
-1.254e-01,-78,-72,-74,-68,-3.12,-2.96,-2,-1.6
-1.251e-01,-74,-78,-70,-72,-3.12,-3.2,-2.4,-2.8
-1.249e-01,-68,-60,-64,-56,-3.12,-3.04,-2.4,-1.6
-1.246e-01,-64,-66,-58,-62,-3.12,-3.2,-2.4,-2.8
-1.244e-01,-56,-44,-52,-42,-3.04,-2.88,-2,-1.6
-1.241e-01,-46,-50,-42,-46,-2.88,-3.04,-2,-2.4
-1.239e-01,-38,-28,-34,-26,-2.8,-2.64,-2,-1.6
-1.236e-01,-30,-34,-26,-28,-2.72,-2.8,-2,-2.4
-1.234e-01,-22,-10,-18,-10,-2.56,-2.32,-2,-1.2
-1.231e-01,-14,-18,-12,-14,-2.4,-2.56,-1.6,-2
-1.228e-01,-6,6,-4,4,-2.24,-2,-1.6,-1.2
-1.226e-01,2,-2,4,4.47035e-08,-2.08,-2.16,-1.6,-2
-1.223e-01,10,20,8,18,-1.84,-1.68,-1.2,-0.8
-1.221e-01,16,14,16,14,-1.68,-1.84,-1.2,-1.6
-1.218e-01,26,36,24,32,-1.44,-1.2,-0.8,-0.4
-1.216e-01,34,30,30,28,-1.28,-1.36,-0.8,-1.6
-1.213e-01,42,52,40,46,-0.96,-0.72,-0.8,1.78814e-08
-1.211e-01,50,46,46,42,-0.72,-0.8,-0.4,-0.8
-1.208e-01,58,66,52,60,-0.48,-0.16,-0.4,0.4
-1.205e-01,64,60,60,56,-0.24,-0.32,-0.4,-0.8
-1.203e-01,72,80,64,72,3.57628e-09,0.32,1.78814e-08,0.8
-1.200e-01,78,72,70,68,0.32,0.16,1.78814e-08,-0.4
-1.198e-01,82,88,74,80,0.56,0.8,0.4,0.8
-1.195e-01,88,82,80,76,0.8,0.64,0.8,1.78814e-08
-1.193e-01,90,98,82,88,1.04,1.28,0.8,1.2
-1.190e-01,96,90,84,84,1.28,1.12,0.8,0.4
-1.187e-01,98,104,88,94,1.52,1.76,0.8,1.6
-1.185e-01,102,98,92,90,1.68,1.52,1.2,0.8
-1.182e-01,104,108,94,98,1.92,2.16,1.6,2
-1.180e-01,106,100,94,92,2.16,2,1.2,0.8
-1.177e-01,106,110,96,98,2.32,2.48,1.6,2
-1.175e-01,104,96,94,88,2.48,2.24,1.6,1.2
-1.172e-01,102,108,92,96,2.64,2.8,1.6,2.4
-1.170e-01,100,92,90,82,2.72,2.56,2,1.2
-1.167e-01,98,104,88,92,2.8,2.96,1.6,2.4
-1.164e-01,96,84,84,76,2.88,2.72,2,1.6
-1.162e-01,92,98,82,88,2.96,3.12,2,2.8
-1.159e-01,86,76,76,68,3.12,2.88,2,1.6
-1.157e-01,84,92,72,80,3.12,3.2,2,2.8
-1.154e-01,80,66,70,58,3.12,2.96,2,1.6
-1.152e-01,76,84,64,72,3.2,3.28,2,2.8
-1.149e-01,70,52,60,46,3.12,2.96,2,1.6
-1.147e-01,62,74,52,62,3.2,3.28,2,2.8
-1.144e-01,56,34,46,30,3.12,2.72,2,1.2
-1.141e-01,48,58,38,50,3.04,3.2,2,2.4
-1.139e-01,38,18,30,14,2.8,2.48,2,1.2
-1.136e-01,26,42,22,34,2.8,2.96,1.6,2.4
-1.134e-01,20,2,16,4.47035e-08,2.64,2.16,1.6,1.2
-1.131e-01,10,24,6,18,2.48,2.72,1.6,2
-1.129e-01,4,-14,4.47035e-08,-14,2.32,1.84,1.2,0.8
-1.126e-01,-4,8,-8,4,2.08,2.4,1.2,2
-1.123e-01,-12,-28,-14,-28,1.92,1.36,1.2,0.4
-1.121e-01,-18,-6,-20,-10,1.76,2.08,0.8,1.6
-1.118e-01,-28,-44,-26,-44,1.52,0.96,0.8,1.78814e-08
-1.116e-01,-34,-22,-36,-24,1.28,1.6,0.8,1.6
-1.113e-01,-44,-60,-42,-58,1.04,0.48,0.4,-0.4
-1.111e-01,-52,-38,-50,-38,0.8,1.12,0.4,1.2
-1.108e-01,-58,-74,-56,-70,0.48,-0.08,1.78814e-08,-0.8
-1.106e-01,-64,-54,-64,-54,0.24,0.64,1.78814e-08,0.8
-1.103e-01,-72,-86,-70,-80,3.57628e-09,-0.56,1.78814e-08,-0.8
-1.100e-01,-78,-66,-74,-66,-0.24,0.08,-0.4,0.4
-1.098e-01,-84,-94,-80,-88,-0.48,-1.04,-0.8,-1.2
-1.095e-01,-88,-78,-84,-76,-0.72,-0.4,-0.8,1.78814e-08
-1.093e-01,-92,-102,-88,-94,-0.96,-1.52,-0.8,-1.6
-1.090e-01,-96,-88,-90,-84,-1.2,-0.88,-1.2,-0.4
-1.088e-01,-98,-108,-92,-100,-1.44,-2,-1.2,-2
-1.085e-01,-104,-94,-96,-90,-1.68,-1.36,-1.6,-0.8
-1.082e-01,-106,-110,-98,-102,-1.84,-2.32,-1.6,-2
-1.080e-01,-106,-100,-100,-96,-2.08,-1.76,-1.6,-0.8
-1.077e-01,-108,-110,-100,-102,-2.24,-2.64,-1.6,-2.4
-1.075e-01,-106,-100,-98,-94,-2.4,-2.16,-1.6,-1.2
-1.072e-01,-104,-108,-96,-100,-2.48,-2.88,-2,-2.4
-1.070e-01,-102,-94,-96,-90,-2.64,-2.48,-2,-1.6
-1.067e-01,-98,-102,-92,-94,-2.8,-3.04,-2,-2.8
-1.065e-01,-96,-88,-90,-84,-2.88,-2.64,-2,-1.6
-1.062e-01,-94,-96,-86,-88,-2.96,-3.12,-2,-2.8
-1.059e-01,-90,-80,-82,-76,-3.04,-2.88,-2,-1.6
-1.057e-01,-86,-88,-78,-80,-3.04,-3.2,-2,-2.8
-1.054e-01,-82,-72,-74,-68,-3.12,-2.96,-2,-1.6
-1.052e-01,-74,-80,-70,-72,-3.04,-3.2,-2.4,-2.8
-1.049e-01,-70,-62,-64,-56,-3.12,-3.04,-2,-1.6
-1.047e-01,-64,-68,-60,-62,-3.04,-3.2,-2,-2.8
-1.044e-01,-58,-46,-52,-42,-3.04,-2.88,-2.4,-1.6
-1.042e-01,-48,-52,-44,-46,-2.96,-3.12,-2,-2.4
-1.039e-01,-40,-28,-36,-26,-2.8,-2.64,-2,-1.6
-1.036e-01,-30,-34,-28,-30,-2.72,-2.88,-2,-2.4
-1.034e-01,-22,-12,-20,-10,-2.56,-2.4,-2,-1.2
-1.031e-01,-16,-18,-12,-14,-2.48,-2.56,-1.6,-2
-1.029e-01,-6,4,-4,4,-2.32,-2,-1.6,-1.2
-1.026e-01,4.47035e-08,-4,2,4.47035e-08,-2.08,-2.24,-1.6,-2
-1.024e-01,8,18,8,16,-1.92,-1.68,-1.6,-0.8
-1.021e-01,14,12,16,12,-1.68,-1.84,-1.2,-1.6
-1.018e-01,24,34,24,32,-1.52,-1.2,-1.2,-0.4
-1.016e-01,30,28,32,28,-1.28,-1.36,-0.8,-1.2
-1.013e-01,38,50,36,46,-1.04,-0.72,-0.8,1.78814e-08
-1.011e-01,50,44,44,42,-0.8,-0.88,-0.8,-1.2
-1.008e-01,56,66,50,58,-0.48,-0.24,-0.4,0.4
-1.006e-01,64,60,58,54,-0.24,-0.4,-0.4,-0.4
-1.003e-01,68,78,64,70,3.57628e-09,0.24,1.78814e-08,0.8
-1.001e-01,78,72,70,66,0.24,0.16,1.78814e-08,-0.4
-9.980e-02,82,88,76,80,0.56,0.8,0.4,0.8
-9.955e-02,86,82,78,76,0.72,0.64,0.4,1.78814e-08
-9.929e-02,90,96,84,86,0.96,1.28,0.4,1.2
-9.903e-02,92,90,86,82,1.2,1.04,0.4,0.4
-9.878e-02,96,104,88,92,1.44,1.68,0.8,1.6
-9.852e-02,100,96,92,88,1.68,1.52,1.2,0.4
-9.827e-02,104,108,94,98,1.92,2.16,1.2,2
-9.801e-02,106,100,94,92,2.16,1.92,1.2,0.8
-9.775e-02,104,110,96,98,2.24,2.48,1.6,2
-9.750e-02,104,98,96,88,2.4,2.24,1.2,1.2
-9.724e-02,102,108,92,98,2.56,2.8,1.6,2.4
-9.699e-02,102,92,90,84,2.72,2.56,1.6,1.2
-9.673e-02,98,104,88,92,2.8,2.96,1.6,2.4
-9.647e-02,94,84,84,76,2.88,2.72,2,1.6
-9.622e-02,92,98,82,88,3.04,3.12,2,2.4
-9.596e-02,88,76,78,68,3.04,2.88,2,1.6
-9.571e-02,84,92,74,80,3.12,3.2,2,2.8
-9.545e-02,80,68,70,58,3.12,2.96,2,1.6
-9.519e-02,74,84,64,72,3.2,3.28,2,2.4
-9.494e-02,70,54,60,46,3.2,2.96,2,1.6
-9.468e-02,62,74,54,64,3.12,3.28,2,2.8
-9.442e-02,56,36,48,30,3.12,2.8,2,1.2
-9.417e-02,46,60,40,50,3.04,3.2,2,2.4
-9.391e-02,38,20,32,14,2.88,2.48,2,1.2
-9.366e-02,28,42,24,34,2.8,3.04,2,2.4
