corrections/scope/2P.CSV

Model,DPO2014B
Firmware Version,1.52

Point Format,Y,,,,,,,
Horizontal Units,S,,,,,,,
Horizontal Scale,0.02,,,,,,,
Sample Interval,3.84025e-05,,,,,,,
Filter Frequency,1e+08,,,,,,,
Record Length,5208,,,,,,,
Gating,0.0% to 100.0%,,0.0% to 100.0%,,0.0% to 100.0%,,0.0% to 100.0%,
Probe Attenuation,100,,50,,10,,10,
Vertical Units,V,,V,,A,,A,
Vertical Offset,0,,0,,0,,0,
Vertical Scale,50,,50,,10,,20,
Label,,,,,,,,
TIME,CH1,CH1 Peak Detect,CH2,CH2 Peak Detect,CH3,CH3 Peak Detect,CH4,CH4 Peak Detect
-1.000e-01,104,100,95,91,2,1.6,1.2,0.4
-9.996e-02,102,106,93,97,2,2.4,1.2,2.8
-9.992e-02,102,100,95,91,2,1.6,2,0.4
-9.988e-02,102,108,95,97,2,2.8,1.2,2
-9.985e-02,102,100,95,93,2,1.6,2,0.4
-9.981e-02,106,108,95,97,2.4,2.8,1.2,2.8
-9.977e-02,106,100,95,93,2,1.6,1.2,0.4
-9.973e-02,104,108,95,97,2,2.8,1.2,2.8
-9.969e-02,104,102,95,93,2.4,1.6,1.2,0.4
-9.965e-02,104,108,97,97,2,2.8,1.2,2.8
-9.962e-02,104,100,95,93,2,2,1.2,0.4
-9.958e-02,104,108,95,99,2.4,2.8,2,2.8
-9.954e-02,104,100,95,93,2,2,1.2,0.4
-9.950e-02,104,108,95,97,2.4,2.8,2,2.8
-9.946e-02,104,100,95,93,2.4,2,2,0.4
-9.942e-02,104,108,95,97,2.4,2.8,1.2,2.8
-9.939e-02,106,100,97,93,2.4,2,1.2,0.4
-9.935e-02,104,108,95,97,2.4,2.8,1.2,2.8
-9.931e-02,104,100,95,93,2.4,2,1.2,0.4
-9.927e-02,106,108,95,97,2.4,2.8,2,2.8
-9.923e-02,104,100,95,93,2.8,2,2,0.4
-9.919e-02,104,108,95,97,2.4,2.8,2,2.8
-9.916e-02,104,100,95,91,2.4,2,2,0.4
-9.912e-02,104,106,93,97,2.8,3.2,1.2,2.8
-9.908e-02,104,100,93,91,2.8,2,1.2,0.4
-9.904e-02,104,106,93,95,2.4,3.2,1.2,2.8
-9.900e-02,102,98,93,89,2.4,2,1.2,1.2
-9.896e-02,100,106,93,95,2.8,3.2,2,2.8
-9.892e-02,102,98,93,89,2.8,2.4,1.2,1.2
-9.889e-02,102,104,91,93,2.8,3.2,2,2.8
-9.885e-02,102,96,91,89,2.8,2.4,1.2,1.2
-9.881e-02,100,104,91,93,2.8,3.2,2,2.8
-9.877e-02,100,96,91,87,2.8,2.4,1.2,1.2
-9.873e-02,100,104,89,93,2.8,3.2,1.2,2.8
-9.869e-02,100,96,91,87,2.8,2.4,2,1.2
-9.866e-02,98,102,89,91,2.8,3.2,2,2.8
-9.862e-02,98,94,89,87,2.8,2.4,2,1.2
-9.858e-02,98,102,89,91,2.8,3.2,2,2.8
-9.854e-02,98,94,89,85,2.8,2.4,2,1.2
-9.850e-02,98,102,87,91,3.2,3.2,2,2.8
-9.846e-02,98,94,87,85,3.2,2.4,2,1.2
-9.843e-02,98,100,87,89,2.8,3.2,2,2.8
-9.839e-02,98,92,85,83,2.8,2.4,2,1.2
-9.835e-02,96,100,87,89,2.8,3.2,2,2.8
-9.831e-02,96,92,85,83,3.2,2.4,2,1.2
-9.827e-02,96,100,85,89,2.8,3.6,1.2,2.8
-9.823e-02,94,90,85,83,2.8,2.4,2,1.2
-9.820e-02,94,98,85,87,2.8,3.6,2,2.8
-9.816e-02,94,90,85,81,3.2,2.4,2,1.2
-9.812e-02,94,98,85,87,3.2,3.6,2,2.8
-9.808e-02,94,88,83,79,2.8,2.4,2,1.2
-9.804e-02,92,96,83,85,3.2,3.6,2,3.6
-9.800e-02,90,88,83,79,2.8,2.4,2,1.2
-9.796e-02,92,94,81,85,3.2,3.6,2,2.8
-9.793e-02,90,86,81,77,3.2,2.4,2,1.2
-9.789e-02,88,94,79,83,3.2,3.6,2,3.6
-9.785e-02,90,86,81,77,3.2,2.4,2,1.2
-9.781e-02,90,92,79,83,3.2,3.6,2,2.8
-9.777e-02,88,84,79,75,3.2,2.8,2,1.2
-9.773e-02,86,92,79,81,2.8,3.6,2.8,2.8
-9.770e-02,88,84,77,75,3.2,2.4,2,1.2
-9.766e-02,88,90,77,79,3.2,3.6,2,2.8
-9.762e-02,86,82,77,73,3.2,2.4,2.8,1.2
-9.758e-02,86,90,77,79,3.2,3.6,2,2.8
-9.754e-02,86,80,77,73,3.2,2.8,2,1.2
-9.750e-02,84,90,75,77,3.2,3.6,2,3.6
-9.747e-02,86,80,75,71,3.2,2.8,2,1.2
-9.743e-02,84,88,75,77,3.2,3.6,2,2.8
-9.739e-02,82,78,73,71,3.2,2.8,1.2,1.2
-9.735e-02,82,86,73,75,3.2,3.6,2,2.8
-9.731e-02,82,78,73,69,3.2,2.8,2,1.2
-9.727e-02,82,84,73,75,3.2,3.6,2,3.6
-9.724e-02,80,76,71,67,3.2,2.8,2.8,1.2
-9.720e-02,82,84,69,73,3.2,3.6,2,3.6
-9.716e-02,80,74,69,67,3.2,2.8,2,1.2
-9.712e-02,80,82,71,73,3.2,3.6,2,2.8
-9.708e-02,78,74,69,65,2.8,2.8,2,1.2
-9.704e-02,78,80,69,71,3.2,3.6,2,2.8
-9.700e-02,76,72,67,63,3.2,2.8,2.8,1.2
-9.697e-02,76,80,67,69,3.2,3.6,2,3.6
-9.693e-02,74,70,65,63,3.2,2.8,2.8,1.2
-9.689e-02,74,78,65,67,3.2,3.6,2,2.8
-9.685e-02,72,68,65,61,3.2,2.8,2,1.2
-9.681e-02,74,76,63,67,3.2,3.6,2,2.8
-9.677e-02,72,66,63,59,3.2,2.8,2,1.2
-9.674e-02,68,74,63,65,3.2,3.6,2,3.6
-9.670e-02,70,64,61,57,3.2,2.8,2,1.2
-9.666e-02,70,74,59,63,3.2,3.6,2,2.8
-9.662e-02,68,64,59,55,3.6,2.8,2,1.2
-9.658e-02,68,72,59,61,3.2,3.6,2,3.6
-9.654e-02,66,62,59,55,3.2,2.8,2,1.2
-9.651e-02,66,70,57,59,3.2,3.6,2.8,3.6
-9.647e-02,64,60,57,53,2.8,2.8,2,1.2
-9.643e-02,64,68,55,59,3.2,3.6,2.8,2.8
-9.639e-02,62,58,53,51,3.6,2.8,2,1.2
-9.635e-02,62,66,53,57,3.2,3.6,2,3.6
-9.631e-02,60,56,53,49,3.2,2.8,2,1.2
-9.627e-02,60,64,51,55,3.2,3.6,2.8,2.8
-9.624e-02,56,52,49,45,3.2,2.8,2,1.2
-9.620e-02,56,62,51,53,3.2,3.6,2.8,2.8
-9.616e-02,56,50,49,43,3.6,2.8,2,1.2
-9.612e-02,54,58,47,51,3.2,3.6,2,2.8
-9.608e-02,52,48,47,41,3.2,2.8,2,1.2
-9.604e-02,52,56,45,49,3.2,3.6,2,2.8
-9.601e-02,50,44,43,39,3.6,2.4,2,1.2
-9.597e-02,50,54,43,45,3.2,3.6,2,2.8
-9.593e-02,48,42,41,37,3.2,2.4,2,1.2
-9.589e-02,46,52,41,43,3.2,3.6,2,2.8
-9.585e-02,46,40,39,35,3.2,2.4,2,1.2
-9.581e-02,44,48,37,41,2.8,3.6,2,2.8
-9.578e-02,42,38,35,31,3.2,2.4,2,1.2
-9.574e-02,42,46,35,39,3.2,3.6,2,2.8
-9.570e-02,38,34,35,29,3.2,2.4,2,1.2
-9.566e-02,38,44,33,35,3.2,3.6,2,3.6
-9.562e-02,38,32,33,27,3.2,2.4,2,1.2
-9.558e-02,34,40,31,33,3.2,3.6,2,2.8
-9.555e-02,34,28,31,25,2.8,2.4,1.2,0.4
-9.551e-02,34,38,27,31,2.8,3.6,2,2.8
-9.547e-02,32,26,27,23,2.8,2.4,2,1.2
-9.543e-02,32,36,25,29,2.8,3.2,1.2,2.8
-9.539e-02,28,24,23,19,2.8,2.4,2,1.2
-9.535e-02,26,34,23,27,2.8,3.2,2,2.8
-9.531e-02,28,20,23,17,2.8,2.4,2,1.2
-9.528e-02,26,30,21,23,2.8,3.2,1.2,2.8
-9.524e-02,22,18,19,15,2.8,2.4,1.2,1.2
-9.520e-02,22,28,17,21,3.2,3.2,2,2.8
-9.516e-02,22,16,17,13,2.8,2,2,0.4
-9.512e-02,20,26,15,19,3.2,3.2,1.2,2.8
-9.508e-02,20,14,15,11,2.8,2,2,0.4
-9.505e-02,18,24,15,17,2.8,3.2,1.2,2.8
-9.501e-02,18,12,13,9,2.8,2,2,0.4
-9.497e-02,16,22,11,15,2.8,3.2,2,2.8
-9.493e-02,16,10,9,7,2.4,2,2,0.4
-9.489e-02,14,18,9,13,2.4,3.2,2,2.8
-9.485e-02,12,8,7,5,2.4,2,2,0.4
-9.482e-02,10,16,7,11,2.4,3.2,2,2.8
-9.478e-02,12,4,5,3,2.8,2,2,0.4
-9.474e-02,8,14,5,9,2.8,2.8,1.2,2.8
-9.470e-02,10,2,5,-1,2.4,2,1.2,0.4
-9.466e-02,6,12,3,7,2.4,2.8,2,2.8
-9.462e-02,4,-8.9407e-08,1,-3,2.4,2,1.2,0.4
-9.459e-02,4,10,1,5,2.4,2.8,2,2.8
-9.455e-02,4,-2,1,-5,2.4,2,2,0.4
-9.451e-02,2,6,-1,3,2.4,2.8,2,2.8
-9.447e-02,-8.9407e-08,-6,-3,-7,2.4,1.6,1.2,0.4
-9.443e-02,-2,4,-3,-1,2.4,2.8,1.2,2.8
-9.439e-02,-4,-8,-5,-9,2,1.6,2,0.4
-9.435e-02,-4,2,-5,-3,2,2.8,1.2,2.8
-9.432e-02,-4,-10,-7,-11,2.4,1.6,2,0.4
-9.428e-02,-4,-8.9407e-08,-7,-5,2,2.8,1.2,2.8
-9.424e-02,-6,-12,-9,-13,2,1.6,2,0.4
-9.420e-02,-8,-4,-9,-7,2,2.8,1.2,2
-9.416e-02,-10,-14,-11,-15,2,1.6,1.2,0.4
-9.412e-02,-8,-6,-11,-9,2,2.4,1.2,2.8
-9.409e-02,-10,-16,-13,-17,2.4,1.6,1.2,0.4
-9.405e-02,-10,-8,-13,-11,2,2.4,1.2,2
-9.401e-02,-14,-18,-15,-19,2,1.6,1.2,0.4
-9.397e-02,-14,-8,-15,-13,2,2.4,2,2
-9.393e-02,-14,-20,-17,-21,2,1.6,1.2,0.4
-9.389e-02,-16,-12,-17,-15,2,2.4,1.2,2
-9.386e-02,-18,-22,-19,-23,2,1.2,1.2,0.4
-9.382e-02,-18,-14,-19,-17,2,2.4,1.2,2
-9.378e-02,-20,-26,-21,-25,2,1.2,1.2,0.4
-9.374e-02,-22,-16,-23,-17,2,2.4,1.2,2
-9.370e-02,-22,-28,-21,-27,2,1.2,1.2,0.4
-9.366e-02,-24,-18,-25,-21,2,2,1.2,2
-9.363e-02,-24,-30,-25,-29,1.6,1.2,0.4,0.4
-9.359e-02,-26,-20,-27,-23,1.6,2,0.4,2
-9.355e-02,-28,-32,-27,-31,1.6,1.2,1.2,0.4
-9.351e-02,-30,-24,-29,-25,2,2,1.2,2
-9.347e-02,-30,-34,-29,-33,1.6,0.8,1.2,-0.4
-9.343e-02,-30,-26,-31,-27,1.2,2,1.2,2
-9.339e-02,-32,-38,-33,-37,1.6,0.8,1.2,-0.4
-9.336e-02,-32,-28,-33,-29,1.6,2,0.4,2
-9.332e-02,-36,-40,-35,-39,1.6,0.8,0.4,-0.4
-9.328e-02,-36,-30,-35,-31,1.2,2,1.2,2
-9.324e-02,-36,-42,-37,-41,1.2,0.8,0.4,-0.4
-9.320e-02,-38,-34,-37,-35,1.2,1.6,1.2,2
-9.316e-02,-38,-44,-39,-43,1.6,0.8,0.4,-0.4
-9.313e-02,-40,-36,-41,-37,1.2,1.6,0.4,2
-9.309e-02,-42,-48,-41,-45,1.2,0.8,0.4,-0.4
-9.305e-02,-44,-38,-43,-39,1.2,1.6,0.4,2
-9.301e-02,-44,-50,-45,-47,1.2,0.8,0.4,-0.4
-9.297e-02,-44,-40,-45,-41,1.2,1.6,0.4,2
-9.293e-02,-48,-52,-45,-49,1.2,0.4,0.4,-0.4
-9.290e-02,-46,-44,-47,-43,0.8,1.6,0.4,2
-9.286e-02,-46,-54,-47,-51,0.8,0.4,0.4,-0.4
-9.282e-02,-48,-44,-49,-45,0.8,1.2,-0.4,2
-9.278e-02,-50,-56,-51,-53,0.8,0.4,0.4,-0.4
-9.274e-02,-52,-48,-51,-47,0.8,1.2,-0.4,1.2
-9.270e-02,-54,-58,-51,-55,0.8,0.4,-0.4,-0.4
-9.267e-02,-54,-50,-53,-49,0.8,1.2,0.4,1.2
-9.263e-02,-56,-62,-53,-59,0.8,0.4,0.4,-0.4
-9.259e-02,-54,-52,-55,-51,0.8,1.2,0.4,1.2
-9.255e-02,-58,-62,-55,-59,0.4,0,0.4,-1.2
-9.251e-02,-60,-54,-59,-53,0.8,1.2,0.4,1.2
-9.247e-02,-60,-64,-59,-61,0.8,0,0.4,-0.4
-9.243e-02,-60,-56,-59,-55,0.4,0.8,0.4,1.2
-9.240e-02,-60,-68,-61,-63,0.4,0,0.4,-0.4
-9.236e-02,-62,-58,-61,-57,0.4,0.8,0.4,1.2
-9.232e-02,-64,-68,-61,-65,0.4,-0.4,0.4,-1.2
-9.228e-02,-64,-60,-63,-59,0.4,0.8,0.4,1.2
-9.224e-02,-64,-70,-63,-67,0.4,0,0.4,-1.2
-9.220e-02,-66,-62,-63,-61,0.8,0.8,-0.4,1.2
-9.217e-02,-66,-72,-65,-69,0.4,-0.4,-0.4,-1.2
-9.213e-02,-68,-64,-67,-63,0.4,0.8,-0.4,1.2
-9.209e-02,-70,-76,-67,-71,0.4,-0.4,-0.4,-1.2
-9.205e-02,-72,-66,-69,-65,0.4,0.8,-0.4,1.2
-9.201e-02,-72,-76,-69,-73,0.4,-0.4,-0.4,-1.2
-9.197e-02,-72,-68,-69,-67,0,0.4,-0.4,1.2
-9.194e-02,-74,-80,-71,-75,0,-0.4,-0.4,-1.2
-9.190e-02,-76,-70,-71,-69,0,0.4,-0.4,1.2
-9.186e-02,-76,-80,-73,-77,0,-0.4,-0.4,-1.2
-9.182e-02,-78,-72,-73,-69,0,0.4,0.4,1.2
-9.178e-02,-78,-82,-73,-77,0.4,-0.8,-0.4,-1.2
-9.174e-02,-78,-74,-75,-71,0,0.4,-0.4,1.2
-9.171e-02,-80,-84,-75,-79,0,-0.8,-0.4,-1.2
-9.167e-02,-80,-76,-77,-73,-0.4,0.4,-0.4,1.2
-9.163e-02,-82,-86,-77,-81,0,-0.8,-0.4,-1.2
-9.159e-02,-84,-76,-77,-75,0,0,-0.4,0.4
-9.155e-02,-84,-88,-79,-81,-0.4,-0.8,-0.4,-1.2
-9.151e-02,-84,-78,-79,-77,-0.4,0,-1.2,0.4
-9.147e-02,-84,-88,-81,-83,-0.4,-1.2,-0.4,-1.2
-9.144e-02,-84,-80,-79,-77,-0.8,0,-0.4,0.4
-9.140e-02,-86,-90,-81,-85,-0.4,-0.8,-0.4,-1.2
-9.136e-02,-86,-82,-83,-79,-0.4,0,-0.4,0.4
-9.132e-02,-86,-92,-83,-85,-0.8,-1.2,-0.4,-1.2
-9.128e-02,-88,-84,-83,-79,-0.4,0,-0.4,0.4
-9.124e-02,-88,-92,-83,-87,-0.8,-1.2,-0.4,-2
-9.121e-02,-90,-84,-83,-81,-0.8,0,-0.4,0.4
-9.117e-02,-88,-94,-85,-87,-0.8,-1.2,-0.4,-1.2
-9.113e-02,-92,-86,-85,-83,-0.8,-0.4,-1.2,0.4
-9.109e-02,-92,-96,-87,-89,-0.8,-1.2,-1.2,-2
-9.105e-02,-90,-86,-85,-83,-0.8,-0.4,-0.4,0.4
-9.101e-02,-92,-96,-87,-89,-0.8,-1.2,-0.4,-2
-9.098e-02,-92,-88,-87,-85,-0.8,-0.4,-0.4,0.4
-9.094e-02,-92,-98,-87,-91,-0.8,-1.6,-0.4,-2
-9.090e-02,-94,-90,-89,-85,-0.8,-0.4,-1.2,0.4
-9.086e-02,-96,-98,-89,-91,-0.8,-1.6,-0.4,-2
-9.082e-02,-96,-90,-89,-87,-1.2,-0.4,-0.4,0.4
-9.078e-02,-96,-100,-89,-93,-1.2,-1.6,-0.4,-2
-9.075e-02,-94,-92,-89,-87,-0.8,-0.8,-1.2,0.4
-9.071e-02,-98,-100,-91,-93,-0.8,-1.6,-1.2,-2
-9.067e-02,-96,-92,-91,-89,-1.2,-0.8,-1.2,0.4
-9.063e-02,-96,-102,-91,-95,-1.2,-1.6,-1.2,-2
-9.059e-02,-98,-94,-91,-89,-1.2,-0.8,-0.4,0.4
-9.055e-02,-100,-102,-93,-95,-1.2,-1.6,-0.4,-2
-9.051e-02,-98,-94,-93,-91,-1.6,-0.8,-1.2,0.4
-9.048e-02,-100,-104,-93,-97,-1.2,-1.6,-1.2,-2
-9.044e-02,-100,-96,-93,-91,-1.2,-0.8,-1.2,0.4
-9.040e-02,-100,-104,-93,-97,-1.2,-2,-1.2,-2
-9.036e-02,-102,-96,-95,-91,-1.6,-0.8,-1.2,0.4
-9.032e-02,-102,-106,-95,-97,-1.2,-2,-1.2,-2
-9.028e-02,-102,-98,-95,-93,-1.2,-0.8,-1.2,-0.4
-9.025e-02,-102,-106,-95,-99,-1.6,-2,-1.2,-2
-9.021e-02,-102,-98,-97,-93,-1.6,-1.2,-1.2,-0.4
-9.017e-02,-104,-108,-97,-99,-1.6,-2,-1.2,-2
-9.013e-02,-104,-100,-97,-93,-1.6,-1.2,-1.2,-0.4
-9.009e-02,-106,-108,-97,-99,-1.6,-2,-1.2,-2.8
-9.005e-02,-106,-100,-97,-95,-1.6,-1.2,-1.2,-0.4
-9.002e-02,-106,-110,-99,-101,-1.6,-2,-1.2,-2
-8.998e-02,-106,-102,-99,-95,-1.6,-1.2,-1.2,-0.4
-8.994e-02,-106,-110,-97,-101,-1.6,-2.4,-1.2,-2
-8.990e-02,-106,-102,-99,-97,-1.6,-1.2,-1.2,-0.4
-8.986e-02,-106,-110,-99,-101,-2,-2.4,-1.2,-2
-8.982e-02,-106,-102,-99,-97,-2,-1.6,-2,-0.4
-8.978e-02,-106,-110,-99,-101,-2,-2.4,-1.2,-2
-8.975e-02,-108,-102,-101,-97,-1.6,-1.6,-2,-0.4
-8.971e-02,-108,-112,-101,-103,-2,-2.4,-2,-2.8
-8.967e-02,-106,-104,-101,-97,-2,-1.6,-2,-0.4
-8.963e-02,-108,-112,-101,-103,-1.6,-2.4,-2,-2.8
-8.959e-02,-106,-104,-101,-97,-2,-1.6,-2,-0.4
-8.955e-02,-108,-110,-99,-103,-2,-2.4,-2,-2.8
-8.952e-02,-108,-104,-101,-97,-2,-1.6,-1.2,-0.4
-8.948e-02,-106,-110,-101,-103,-2,-2.8,-1.2,-2.8
-8.944e-02,-106,-102,-101,-97,-2,-1.6,-2,-0.4
-8.940e-02,-108,-110,-101,-103,-2.4,-2.8,-1.2,-2.8
-8.936e-02,-108,-102,-101,-97,-2,-1.6,-1.2,-0.4
-8.932e-02,-106,-110,-99,-101,-2.4,-2.8,-1.2,-2.8
-8.929e-02,-108,-102,-99,-97,-2,-1.6,-2,-0.4
-8.925e-02,-106,-110,-99,-101,-2,-2.8,-1.2,-2.8
-8.921e-02,-108,-102,-99,-97,-2.4,-1.6,-1.2,-0.4
-8.917e-02,-106,-110,-99,-101,-2,-2.8,-1.2,-2.8
-8.913e-02,-104,-102,-99,-97,-2.4,-2,-2,-0.4
-8.909e-02,-106,-110,-99,-101,-2.4,-2.8,-2,-2.8
-8.906e-02,-106,-100,-97,-95,-2,-2,-2,-0.4
-8.902e-02,-106,-108,-97,-99,-2.4,-2.8,-2,-2.8
-8.898e-02,-104,-100,-97,-95,-2.4,-2,-1.2,-0.4
-8.894e-02,-104,-108,-97,-99,-2.4,-2.8,-1.2,-2.8
-8.890e-02,-104,-100,-97,-93,-2.4,-2,-2,-0.4
-8.886e-02,-104,-108,-97,-99,-2.4,-2.8,-2,-2.8
-8.882e-02,-104,-98,-95,-93,-2.4,-2,-2,-0.4
-8.879e-02,-104,-106,-95,-97,-2.4,-2.8,-1.2,-2.8
-8.875e-02,-102,-98,-95,-93,-2.4,-2,-2,-0.4
-8.871e-02,-102,-106,-95,-97,-2.4,-2.8,-2,-2.8
-8.867e-02,-104,-98,-95,-91,-2.4,-2,-2,-1.2
-8.863e-02,-102,-106,-95,-97,-2.4,-3.2,-2,-2.8
-8.859e-02,-102,-98,-95,-91,-2.4,-2,-2,-1.2
-8.856e-02,-102,-104,-95,-95,-2.4,-3.2,-2,-2.8
-8.852e-02,-102,-96,-93,-91,-2.4,-2,-2,-1.2
-8.848e-02,-100,-104,-93,-95,-2.4,-3.2,-2,-2.8
-8.844e-02,-100,-96,-93,-89,-2.4,-2,-2,-1.2
-8.840e-02,-100,-102,-91,-93,-2.8,-3.2,-2,-2.8
-8.836e-02,-98,-94,-91,-89,-2.8,-2,-2,-1.2
-8.833e-02,-98,-102,-91,-93,-2.8,-3.2,-2,-2.8
-8.829e-02,-100,-94,-91,-89,-2.4,-2,-2,-1.2
-8.825e-02,-98,-102,-91,-93,-2.8,-3.2,-2,-2.8
-8.821e-02,-98,-92,-89,-87,-2.4,-2.4,-2,-1.2
-8.817e-02,-96,-100,-89,-91,-2.8,-3.2,-2,-2.8
-8.813e-02,-96,-92,-89,-85,-2.8,-2.4,-2,-1.2
-8.810e-02,-96,-98,-89,-91,-2.8,-3.2,-2,-2.8
-8.806e-02,-96,-90,-87,-85,-2.8,-2.4,-2,-1.2
-8.802e-02,-94,-98,-87,-89,-2.8,-3.2,-2,-2.8
-8.798e-02,-94,-90,-87,-85,-2.8,-2.4,-2,-1.2
-8.794e-02,-94,-98,-87,-89,-2.8,-3.2,-2,-3.6
-8.790e-02,-94,-88,-85,-83,-2.8,-2.4,-2.8,-1.2
-8.786e-02,-94,-96,-87,-87,-2.8,-3.2,-2,-2.8
-8.783e-02,-92,-88,-85,-83,-2.8,-2.4,-2,-1.2
-8.779e-02,-90,-96,-83,-87,-2.8,-3.2,-2,-2.8
-8.775e-02,-92,-86,-85,-81,-2.8,-2.4,-2,-1.2
-8.771e-02,-90,-94,-83,-85,-2.8,-3.2,-2,-2.8
-8.767e-02,-90,-86,-83,-79,-2.8,-2.4,-2,-1.2
-8.763e-02,-88,-92,-83,-83,-2.8,-3.2,-2,-2.8
-8.760e-02,-88,-84,-81,-79,-2.8,-2.4,-2,-1.2
-8.756e-02,-88,-90,-81,-83,-2.8,-3.6,-2,-2.8
-8.752e-02,-88,-84,-79,-77,-2.8,-2.4,-2,-1.2
-8.748e-02,-86,-90,-79,-83,-2.8,-3.2,-2,-2.8
-8.744e-02,-86,-82,-79,-77,-2.8,-2.4,-2,-1.2
-8.740e-02,-86,-88,-79,-81,-2.8,-3.2,-2,-2.8
-8.737e-02,-84,-80,-79,-75,-2.8,-2.4,-2,-1.2
-8.733e-02,-86,-88,-79,-79,-2.8,-3.2,-2,-2.8
-8.729e-02,-82,-80,-77,-73,-2.8,-2.4,-2,-1.2
-8.725e-02,-82,-86,-75,-79,-2.8,-3.2,-2,-2.8
-8.721e-02,-82,-78,-75,-73,-3.2,-2.4,-2,-1.2
-8.717e-02,-82,-84,-75,-77,-2.8,-3.6,-2,-2.8
-8.714e-02,-80,-76,-75,-73,-2.8,-2.4,-2,-1.2
-8.710e-02,-82,-84,-75,-75,-2.8,-3.6,-2,-2.8
-8.706e-02,-80,-76,-73,-71,-2.8,-2.4,-2,-1.2
-8.702e-02,-78,-82,-71,-75,-2.8,-3.6,-2,-2.8
-8.698e-02,-80,-74,-71,-69,-2.8,-2.4,-2,-1.2
-8.694e-02,-80,-80,-71,-73,-2.8,-3.2,-2,-2.8
-8.690e-02,-78,-72,-71,-67,-2.8,-2.4,-2,-1.2
-8.687e-02,-76,-80,-69,-71,-2.8,-3.6,-2,-2.8
-8.683e-02,-76,-70,-69,-65,-2.8,-2.4,-2,-1.2
-8.679e-02,-74,-78,-67,-69,-2.8,-3.6,-2,-2.8
-8.675e-02,-74,-70,-67,-65,-2.8,-2.4,-2,-1.2
-8.671e-02,-74,-76,-67,-69,-2.8,-3.6,-2,-2.8
-8.667e-02,-72,-68,-65,-63,-2.8,-2.4,-2,-1.2
-8.664e-02,-70,-74,-65,-67,-2.8,-3.2,-2,-2.8
-8.660e-02,-70,-66,-65,-61,-2.8,-2.4,-2,-1.2
-8.656e-02,-70,-72,-63,-65,-2.8,-3.6,-2,-2.8
-8.652e-02,-70,-64,-63,-59,-2.8,-2.4,-2,-1.2
-8.648e-02,-68,-70,-61,-63,-2.8,-3.6,-2,-2.8
-8.644e-02,-66,-62,-61,-57,-2.8,-2.4,-2,-1.2
-8.641e-02,-64,-68,-61,-61,-2.8,-3.2,-2,-2.8
-8.637e-02,-64,-60,-59,-55,-2.8,-2.4,-2,-1.2
-8.633e-02,-64,-66,-59,-61,-2.8,-3.2,-2,-2.8
-8.629e-02,-64,-58,-57,-53,-2.8,-2.4,-2,-1.2
-8.625e-02,-60,-64,-55,-59,-2.8,-3.2,-2,-2.8
-8.621e-02,-60,-56,-55,-51,-2.8,-2.4,-2,-1.2
-8.618e-02,-60,-62,-55,-57,-2.8,-3.2,-2,-2.8
-8.614e-02,-58,-52,-53,-49,-2.8,-2.4,-2,-1.2
-8.610e-02,-58,-60,-51,-53,-2.8,-3.6,-2,-2.8
-8.606e-02,-56,-50,-51,-47,-2.8,-2.4,-2,-1.2
-8.602e-02,-54,-56,-49,-51,-2.8,-3.2,-2,-2.8
-8.598e-02,-52,-48,-47,-45,-2.8,-2.4,-2,-1.2
-8.594e-02,-54,-56,-47,-49,-2.8,-3.2,-2,-2.8
-8.591e-02,-50,-46,-45,-43,-2.8,-2.4,-2,-1.2
-8.587e-02,-48,-52,-45,-47,-2.8,-3.2,-2,-2.8
-8.583e-02,-48,-42,-43,-39,-2.8,-2.4,-2,-1.2
-8.579e-02,-48,-50,-43,-43,-2.8,-3.2,-2,-2.8
-8.575e-02,-46,-40,-41,-37,-2.8,-2.4,-2,-0.4
-8.571e-02,-44,-46,-39,-41,-2.8,-3.2,-2,-2.8
-8.568e-02,-44,-38,-37,-35,-2.8,-2.4,-2,-1.2
-8.564e-02,-42,-44,-37,-39,-2.8,-3.2,-2,-2.8
-8.560e-02,-40,-34,-35,-31,-2.4,-2,-2,-1.2
-8.556e-02,-40,-42,-33,-37,-2.8,-3.2,-2,-2.8
-8.552e-02,-38,-32,-33,-29,-2.4,-2,-2,-0.4
-8.548e-02,-36,-38,-33,-33,-2.8,-3.2,-1.2,-2.8
-8.545e-02,-36,-30,-31,-27,-2.8,-2,-2,-0.4
-8.541e-02,-32,-36,-29,-31,-2.8,-3.2,-2,-2.8
-8.537e-02,-32,-28,-29,-25,-2.8,-2,-2,-0.4
-8.533e-02,-32,-34,-27,-29,-2.8,-3.2,-2,-2.8
-8.529e-02,-30,-24,-27,-23,-2.4,-2,-2,-0.4
-8.525e-02,-26,-32,-25,-27,-2.4,-2.8,-2,-2.8
-8.522e-02,-26,-22,-23,-19,-2.4,-2,-1.2,-0.4
-8.518e-02,-26,-28,-21,-23,-2.4,-2.8,-1.2,-2.8
-8.514e-02,-24,-20,-21,-17,-2.4,-2,-2,-0.4
-8.510e-02,-22,-26,-19,-21,-2.8,-2.8,-2,-2.8
-8.506e-02,-24,-18,-19,-15,-2.4,-2,-2,-0.4
-8.502e-02,-22,-24,-17,-19,-2.4,-2.8,-1.2,-2.8
-8.498e-02,-18,-14,-15,-13,-2.4,-2,-2,-0.4
-8.495e-02,-18,-22,-15,-17,-2.4,-2.8,-2,-2.8
-8.491e-02,-18,-12,-15,-11,-2.4,-2,-2,-0.4
-8.487e-02,-14,-20,-13,-15,-2.4,-2.8,-2,-2.8
-8.483e-02,-14,-10,-11,-9,-2.4,-2,-2,-0.4
-8.479e-02,-14,-18,-11,-13,-2.4,-2.8,-1.2,-2.8
-8.475e-02,-14,-8,-9,-7,-2.4,-1.6,-1.2,-0.4
-8.472e-02,-10,-14,-9,-11,-2,-2.8,-2,-2.8
-8.468e-02,-8,-6,-9,-5,-2,-1.6,-2,-0.4
-8.464e-02,-10,-12,-7,-9,-2.4,-2.8,-1.2,-2.8
-8.460e-02,-8,-4,-5,-3,-2,-1.6,-1.2,-0.4
-8.456e-02,-6,-10,-5,-7,-2,-2.8,-1.2,-2
-8.452e-02,-6,-8.9407e-08,-3,-1,-2,-1.6,-1.2,-0.4
-8.449e-02,-4,-8,-3,-5,-2,-2.4,-1.2,-2
-8.445e-02,-2,2,-1,1,-2,-1.6,-1.2,-0.4
-8.441e-02,-2,-6,1,-3,-2,-2.4,-1.2,-2
-8.437e-02,-8.9407e-08,4,1,5,-2,-1.6,-1.2,-0.4
-8.433e-02,-8.9407e-08,-2,1,1,-2,-2.4,-1.2,-2
-8.429e-02,2,6,3,7,-2,-1.2,-1.2,-0.4
-8.425e-02,2,-8.9407e-08,3,1,-2,-2.4,-1.2,-2
-8.422e-02,4,8,5,7,-1.6,-1.6,-2,-0.4
-8.418e-02,6,2,7,5,-2,-2.4,-2,-2
-8.414e-02,6,10,7,9,-1.6,-1.2,-1.2,-0.4
-8.410e-02,6,4,7,5,-1.6,-2.4,-1.2,-2
-8.406e-02,10,12,9,11,-1.6,-1.2,-1.2,-0.4
-8.402e-02,8,6,9,7,-1.6,-2.4,-1.2,-2
-8.399e-02,10,14,11,13,-1.6,-1.2,-1.2,0.4
-8.395e-02,12,8,11,9,-1.6,-2,-1.2,-2
-8.391e-02,12,18,13,15,-1.6,-1.2,-1.2,0.4
-8.387e-02,14,10,13,11,-2,-2,-1.2,-2
-8.383e-02,14,20,15,17,-1.6,-1.2,-1.2,0.4
-8.379e-02,14,12,15,13,-1.6,-2,-1.2,-2
-8.376e-02,18,22,17,19,-1.6,-1.2,-1.2,-0.4
-8.372e-02,18,14,19,15,-1.6,-2,-0.4,-2
-8.368e-02,18,26,19,21,-1.6,-0.8,-1.2,0.4
-8.364e-02,20,18,21,17,-1.6,-2,-1.2,-2
-8.360e-02,20,26,21,25,-1.2,-0.8,-1.2,0.4
-8.356e-02,22,20,21,19,-1.2,-1.6,-1.2,-2
-8.353e-02,24,30,21,27,-1.2,-0.8,-1.2,0.4
-8.349e-02,24,22,25,23,-1.2,-1.6,-1.2,-2
-8.345e-02,28,32,27,29,-1.2,-0.8,-1.2,0.4
-8.341e-02,26,24,27,25,-1.2,-1.6,-1.2,-2
-8.337e-02,28,34,29,31,-1.2,-0.8,-1.2,0.4
-8.333e-02,30,28,29,27,-1.2,-1.6,-0.4,-2
-8.329e-02,32,36,31,33,-1.2,-0.8,-1.2,0.4
-8.326e-02,34,30,31,29,-1.2,-1.6,-0.4,-2
-8.322e-02,32,40,31,35,-1.2,-0.4,-1.2,0.4
-8.318e-02,34,32,35,31,-1.2,-1.6,-0.4,-2
-8.314e-02,34,42,35,37,-0.8,-0.4,-1.2,0.4
-8.310e-02,36,34,35,33,-0.8,-1.6,-0.4,-2
-8.306e-02,40,44,37,39,-0.8,-0.4,-0.4,0.4
-8.303e-02,38,38,39,35,-0.8,-1.6,-1.2,-2
-8.299e-02,42,46,39,41,-0.8,-0.4,-1.2,0.4
-8.295e-02,42,40,41,37,-0.8,-1.2,-0.4,-1.2
-8.291e-02,44,48,41,43,-0.8,-0.4,-0.4,0.4
-8.287e-02,46,42,43,39,-0.8,-1.2,-0.4,-1.2
-8.283e-02,46,50,43,45,-0.8,0,-0.4,0.4
-8.280e-02,48,44,43,41,-0.4,-1.2,-0.4,-1.2
-8.276e-02,48,54,45,49,-0.8,0,-0.4,0.4
-8.272e-02,48,46,47,43,-0.8,-1.2,-0.4,-1.2
-8.268e-02,50,56,47,51,-0.4,0,-0.4,0.4
-8.264e-02,50,48,49,45,-0.4,-0.8,0.4,-1.2
-8.260e-02,54,58,49,53,-0.4,0,-0.4,1.2
-8.257e-02,54,52,51,49,-0.4,-0.8,-0.4,-1.2
-8.253e-02,56,60,51,55,-0.4,0.4,-0.4,0.4
-8.249e-02,56,54,53,49,-0.4,-0.8,-0.4,-1.2
-8.245e-02,56,62,53,55,-0.4,0,-0.4,1.2
-8.241e-02,58,56,53,51,-0.4,-0.8,-0.4,-1.2
-8.237e-02,58,64,55,57,0,0.4,-0.4,1.2
-8.233e-02,60,58,57,53,-0.4,-0.4,0.4,-1.2
-8.230e-02,62,66,57,61,0,0.4,-0.4,1.2
-8.226e-02,62,60,57,55,0,-0.8,-0.4,-1.2
-8.222e-02,64,68,59,61,0,0.4,0.4,1.2
-8.218e-02,64,62,59,57,0,-0.4,0.4,-1.2
-8.214e-02,66,70,59,63,0,0.4,0.4,1.2
